                        .module main.c
                        .area text(rom, con, rel)
 0000                   .dbfile ./main.c
                        .area bss(ram, con, rel)
 0000                   .dbfile ./main.c
 0000           L2:
 0000                   .blkb 2
                        .area text(rom, con, rel)
 0000                   .dbfile ./main.c
 0000                   .dbfile C:\Users\Link\DOCUME~1\PSoC\Eltp4\Eltp4\main.c
 0000                   .dbfunc e main _main fV
 0000                   .dbsym s elindice L2 i
 0000           _main::
 0000                   .dbline -1
 0000                   .dbline 10
 0000           ; //----------------------------------------------------------------------------
 0000           ; // C main line
 0000           ; //----------------------------------------------------------------------------
 0000           ; 
 0000           ; #include <m8c.h>        // part specific constants and macros
 0000           ; #include "PSoCAPI.h"    // PSoC API definitions for all User Modules
 0000           ; 
 0000           ; 
 0000           ; void main(void)
 0000           ; {
 0000                   .dbline 14
 0000           ;       // M8C_EnableGInt ; // Uncomment this line to enable Global Interrupts
 0000           ;       // Insert your main routine code here.
 0000           ;       static unsigned int elindice;
 0000           ;       PWM1_Start();
 0000 10                push X
 0001 7C0000            xcall _PWM1_Start
 0004                   .dbline 15
 0004           ;       PWM2_Start();
 0004 7C0000            xcall _PWM2_Start
 0007                   .dbline 16
 0007           ;       ELECEDE_Start();
 0007 7C0000            xcall _ELECEDE_Start
 000A                   .dbline 17
 000A           ;       ELECEDE_Position(0,0);
 000A 5000              mov A,0
 000C 5700              mov X,0
 000E 7C0000            xcall _ELECEDE_Position
 0011                   .dbline 18
 0011           ;       ELECEDE_PrCString("Error 404");
 0011 500D              mov A,>L3
 0013 08                push A
 0014 500D              mov A,<L3
 0016 5C                mov X,A
 0017 18                pop A
 0018 7C0000            xcall _ELECEDE_PrCString
 001B                   .dbline 19
 001B           ;       ELECEDE_Position(1,7);
 001B 5707              mov X,7
 001D 5001              mov A,1
 001F 7C0000            xcall _ELECEDE_Position
 0022                   .dbline 20
 0022           ;       ELECEDE_PrCString("PWM1_Start()");
 0022 5000              mov A,>L4
 0024 08                push A
 0025 5000              mov A,<L4
 0027 5C                mov X,A
 0028 18                pop A
 0029 7C0000            xcall _ELECEDE_PrCString
 002C 20                pop X
 002D 801B              xjmp L6
 002F           L5:
 002F                   .dbline 22
 002F           ;       while (1)
 002F           ;       {
 002F                   .dbline 23
 002F           ;               PRT0DR ^=0x02;
 002F 450002            xor REG[0],2
 0032                   .dbline 24
 0032           ;               for (elindice=0;elindice<22000;elindice++){};
 0032 550100            mov [L2+1],0
 0035 550000            mov [L2],0
 0038 8006              xjmp L11
 003A           L8:
 003A                   .dbline 24
 003A                   .dbline 24
 003A           L9:
 003A                   .dbline 24
 003A 7601              inc [L2+1]
 003C 0E0000            adc [L2],0
 003F           L11:
 003F                   .dbline 24
 003F 5101              mov A,[L2+1]
 0041 11F0              sub A,-16
 0043 5100              mov A,[L2]
 0045 1955              sbb A,85
 0047 CFF2              jc L8
 0049           X1:
 0049                   .dbline 24
 0049                   .dbline 25
 0049           ;       }
 0049           L6:
 0049                   .dbline 21
 0049 8FE5              xjmp L5
 004B           X0:
 004B                   .dbline -2
 004B           L1:
 004B                   .dbline 0 ; func end
 004B 8FFF              jmp .
 004D                   .dbend
                        .area lit(rom, con, rel, lit)
 0000           L4:
 0000 50574D315F5374617274282900        .byte 'P,'W,'M,49,95,'S,'t,'a,'r,'t,40,41,0
 000D           L3:
 000D 4572726F722034303400      .byte 'E,'r,'r,'o,'r,32,52,48,52,0
