:4000000080673030303030307e3030307e3030307e3030307e3030307e3030307e3030307d0cae7e7d12127e7d08567e7d08527e7d0c677e7d0c207e7d0bd97e7d0b927ed7
:400040007d0b4b7e7d0b047e7d0abd7e7d0a767e7d0a2f7e7d09e87e7d09a17e7d095a7e7d100c7e7d08d07e711062fa0062e38770ef50202850402850602841fefb5080a1
:400080004e55f80055f900711062e00270ef62e338627105627505627905627d0562d10750004e62d30762d00062d50062d40071c07c057862d000500257a2082853fd184c
:4000c000750900284b51fd800475090062e300082860d574a04b18750900082853fd187509000828a01c53fc1875090008283ffd47fdffb0065dd57460d5187afcbfeb8f32
:40010000c918750900082853fc50003ffd47fdffb0085dd57460d550007afcbfef188faa18711070ef62e000711062e00243e78070ef62e2007c1ffd8fff50107f303030d9
:40014000303030303030303030303030303030303030303030303030303030303030303030303030303030303030303030303030303030303030303030303030303030307f
:4001800030303030303030303030303030303030303030303030303030303030303030300000000000ff01045300003c027f80000000010101020202030303040404070086
:4001c000080109020a030b040c050d060e070f0101100100100101100101110101100102120101100103130101100104140101100105150101100106160101100107170136
:400200000110010818010110010919010110010a1a010110010b1b010110010c1c0400001d0410011e0411021f04120320041304210400052204000623040007240400081a
:40024000250400092604000a2704000b28041b0c000001a601af01b201b501b801bb01be01c001c201c401c601c801ca01cc01ce01d401da01e001e601ec01f201f801fe0b
:400280000204020a02100216021c022002240228022c023002340238023c024002440248024c310570ef62602862660062633662650062e60262e74162d60462b00062b106
:4002c0000062b20062b33362b43362b50062b62062b85562b90062ba1062bb3362bc3362bd8862be4462c00062c10062c22062c33362c43362c51162c68862c85562c900dc
:4003000062ca3062cb3362cc3362cd2262ce11626c00626d00626e00626f006284906285006286606287fc6227006225006226806275fe62762162772062740062230062aa
:4003400021f96222646233006231f96232646237006235f9623664623b006239f9623a64623f00623df9623e646243006241f96242646247006245f9624664624b006249d9
:40038000f9624a64624f00624df9624e646253006251f96252646257006255f9625664625b006259f9625a64625f00625df9625e64622b026229ff622a00622f04622dffd3
:4003c000622e00711062610062690062600062620062673362683362630062660062d10062d30062d00062d20062e1b062e20062df0762de0162dd0062e7486224316225b6
:4004000015622640622031622111622247623031623111623246623431623511623647623831623911623a44623c31623d11623e4562403162411162424662443162451183
:40044000624647624831624911624a44624c31624d11624e45625031625111625246625431625511625647625831625911625a44625c31625d11625e45622800622906622b
:400480002a40622c20622d36622e4070ef71106200006201ff70ef6203ff620200711062020062030070ef62010071106204a06205ff70ef6207a062065f71106206006251
:4004c000070070ef620500711062088062097f70ef620b00620aff7110620a00620b0070ef6209007110620cfc620d0370ef620f00620efc7110620e00620f0070ef620db6
:4005000000711062103f6211c070ef6213c062123f711062120062130070ef621100711062140062150070ef621700621600711062160062170070ef6215007110621800d2
:4005400062190070ef621b00621a007110621a00621b0070ef6219007110621c00621d0070ef621f00621e007110621e00621f0070ef621d0070ef7f551d00551e00551fdf
:40058000005520005522fc5523035521007c05917f7c02a470ef7f00010203040506070606060606060606f8f8f8f8f8f8f8f8000000000000000062d00050005302ffe708
:4005c0007c12afffd27c11e25005579f2864646421384f085d6321c72b006063187f70bf62d3002107645c70fe520375590371014b703f71c07f70bf62d00062d300100858
:400600005102645c67ffa8a0305203085300755203530165016b000401180c001804001804010e000068006e0168006e0151015403795100540380081854037518540376f1
:40064000023c0208c0045502005705509f02024b090028646464213862d3074f085d6321c72b006063185102ff3d703f71c07c12af703f71c05102ff1e703f71c07c11e23b
:40068000703f71c0703f71c07f0404040404040404040404040402101112131416202122232425264040404040404040404040404070bf62d00062d300500053145513006b
:4006c0005700ffe073568fff75548f755b391acff262d300570056eaff755b390dcff843e10843e1047c0878703f71c07f5000ffa55c5114ffa17c271776143c140dc00420
:400700005514005000ff8f5c5114ff8b7c266b50ff57ff7c0880432b0271105114ff6a110153155de121f02a1560e170ef7f08105dd3085dd008703f718062d00041e1fb17
:400740003c1304a0135114645c62d30056a9ff56aaff55130490dc7c087c703f71c07c06ed703f71807c094c10085114645c1862d30013905315181b8fb0095114ff253ab1
:4007800015d01b7c094c10085114645c18549018548f7c087843e10455130080047c08781860d01860d320187f10085dd3085dd008703f718062d0003c1300a0393c13010f
:4007c000a05a3c1302a05a3c1303a003805d7c087c41e1fb7c088c14175b1c1690555513045114645c511662d30054a9511754aa7c08788036581462d30052ea74a0187855
:400800005c62d30052d02102a00d52d02104a00350014b7c1c0d5513018010551302800b7c088c53175a165513031860d01860d318207f62d300581452ea74a012785c6244
:40084000d30052d02104a00350014b7c1b2d7f50007f7c072e7e7c07a97e43e10843e1047f43e1087f43e1047f41e1f741e1fb7f41e1f77f41e1fb7f432b017f412bfe7f4f
:4008800060295b602d7f602a5b602e7f5d2e5c5d2a7f4f38035d2b085d2a085d2e085d285d2e54015d2a5402500049ff80a0035001540070fe412bfe18602a18602e1860f3
:4008c0002b1820703f71c07e5d285d2e5c5d2a7f2e1801471affa0037a1a4719ffa0037a19761cd003761b7e43e0407f41e0bf7f62d000500053185319531a531c531b7f7b
:400900007f21184f0871105de021e72b0060e070ef18703f71c07f62d0005518004718ffaffc55180078bff67f62d0004b2101b006471affbffc4b531a7f62d000511c7f1b
:4009400062d00053197f62d00051197f62d00041e0bf511c581b43e0407f7e43df807f41df7f7f435f017f415ffe7f605d7f605e7f5d5e7f4f5d5e08415ffe71105d5d08c9
:40098000625d0070ef5d5c5d5e085200605e71105201605d70ef435f011838fe703f71c07f7e43df407f41dfbf7f435b017f415bfe7f60597f605a7f5d5a7f4f5d5a084163
:4009c0005bfe71105d590862590070ef5d585d5a085200605a71105201605970ef435b011838fe703f71c07f7e43df207f41dfdf7f4357017f4157fe7f60557f60567f5ddb
:400a0000567f4f5d56084157fe71105d550862550070ef5d545d56085200605671105201605570ef4357011838fe703f71c07f7e43df107f41dfef7f4353017f4153fe7f68
:400a400060517f60527f5d527f4f5d52084153fe71105d510862510070ef5d505d52085200605271105201605170ef4353011838fe703f71c07f7e43df087f41dff77f4376
:400a80004f017f414ffe7f604d7f604e7f5d4e7f4f5d4e08414ffe71105d4d08624d0070ef5d4c5d4e085200604e71105201604d70ef434f011838fe703f71c07f7e43dfea
:400ac000047f41dffb7f434b017f414bfe7f60497f604a7f5d4a7f4f5d4a08414bfe71105d490862490070ef5d485d4a085200604a71105201604970ef434b011838fe7011
:400b00003f71c07f7e43df027f41dffd7f4347017f4147fe7f60457f60467f5d467f4f5d46084147fe71105d450862450070ef5d445d46085200604671105201604570efc2
:400b40004347011838fe703f71c07f7e43df017f41dffe7f4343017f4143fe7f60417f60427f5d427f4f5d42084143fe71105d410862410070ef5d405d42085200604271d0
:400b8000105201604170ef4343011838fe703f71c07f7e43e1807f41e17f7f433f017f413ffe7f603d7f603e7f5d3e7f4f5d3e08413ffe71105d3d08623d0070ef5d3c5d04
:400bc0003e085200603e71105201603d70ef433f011838fe703f71c07f7e43e1407f41e1bf7f433b017f413bfe7f60397f603a7f5d3a7f4f5d3a08413bfe71105d390862d7
:400c0000390070ef5d385d3a085200603a71105201603970ef433b011838fe703f71c07f7e43e1207f41e1df7f4337017f4137fe7f60357f60367f5d367f4f5d36084137b7
:400c4000fe71105d350862350070ef5d345d36085200603671105201603570ef4337011838fe703f71c07f7e43e1107f41e1ef7f4333017f4133fe7f60317f60327f5d3209
:400c80007f4f5d32084133fe71105d310862310070ef5d305d32085200603271105201603170ef4333011838fe703f71c07f7e43e1017f41e1fe7f4323017f4123fe7f607c
:400cc000217f60227f5d227f4f5d22084123fe71105d210862210070ef5d205d22085200602271105201602170ef4323011838fe703f71c07f62d0002e23032622fc711049
:400d00005123600d5122600c70ef2620fc5120600c7f7f70bf62d30762d0014f52fd642901553e0048f901b005913b8003910162d001473e01a02a2e3e10107bfab00426e4
:400d40003eef91f762d001201052fc0852fb60d320513f54002062d30777fc48faffbfdb48f902b003926f62d0015000473e01a0035001703f71c07f70bf62d30762d001e6
:400d80004f52fd64553e0048f901b00590d88003909e62d001554000473e01a02762d3071052fc0852fb60d3205200533f90ed62d00162d30720473e01a00e764077fc7b6f
:400dc000fabfdb48f902b003920c62d0015140703f71c07f62d0014f52fd64553e0048f901b00590818003904762d001554000473e01a0201052fb59fc28533f909e62d0a4
:400e00000120473e01a012764077fcd00377fb7bfabfe248f902b00391bc62d0015140703f71c07f6479d00490067f290190017f62d0000871102e22022622fe5122600c3d
:400e4000500c91c42622fd5122600c70ef490c02affc500c91b218900d7f6479d00490067f290190017f62d0007110082e22015122600c500591911870ef62d001533f6269
:400e8000d00071102e22025122600c70ef5002917790097f62d001533f90017f62d0015541087a4162d00071102e22025122600c70ef62d0016b3f62d0007110c00a2e2291
:400ec000015122600c80082622fe5122600c500591362622fd5122600c70ef490c02affc5005912462d0013c4100bfb790017f62d00071102e22025122600c2622fe5122e7
:400f0000600c500c91022622fd5122600c70ef490c02affc62d001263efe490c01b0042e3e01500590e2513e21017f62d001553e0021ffa0072e3e1090017f62d0015541ec
:400f4000087a416b3f62d00071102e22025122600c500590b32622fd5122600c70ef62d001490c02affc5002909e263ffe490c01a0042e3f013c4100bfc890017f62d0003f
:400f800071102e22025122600c70ef62d001473e1062d0007110a00a2e22015122600c80082622fe5122600c5002905c2622fd5122600c70ef490c02affc5005904a7110ab
:400fc0002e22025122600c2622fe5122600c70ef62d001513f7f62d00071102e22035122600c500c90222622fd5122600c70ef490c02affc7110500c900e2622fe512260ee
:401000000c5005900370ef7f78bffe7f0810703f71805dd3085dd00862d000512760d32e248049d708a0092624f02e2400800b49d720a00641d7df811c5124210ee00180ef
:4010400011806c807e804c80a680e380b68106810d5dd8217e3a30a00662d700810049d880b07949d801b00f5531022624f02e240262d71080e85531012624f02e24065f4d
:401080002625512802265c520060d8762662d71480cc5129783a26c00f512802265c520060d876262e242060d862d70480b05dd83a29d09ca09a532653252624f02e24040f
:4010c0008089512aa08a783a26c085512802265c5dd854002e24107626807049d801b02e5531082624f02e240862d71080705dd83a2fd05ca05a532c532b2624f02e240cfd
:4011000080497c084f3900a0478040d0435531042624f02e240a5f2c2b582d512e022cd002754b2860d8762c62d7148031512f783a2cc010582d512e022cd002754b28600c
:40114000d8762c60d862d704801462d710800f62d700800a2624f02e24005531001860d01860d320187e62d0005530085524005531009021902b7f62d0006453307f62d083
:4011800000512421b026244f7f62d000513067217f7f088008085ddd21fe60dd43de01187f43d6317f41defe41d6fe7f41defe7f41d6fe7f62d0004f52fd532952fc532af0
:4011c00052fb532852fa5327703f71c07f62d0004f52fd532f52fc532e52fb532d703f71c07f4f21076708d00f711043628070ef5d6021fc7d1206711041627f70ef660014
:4012000066005d6021f32b00606018703f71c07f7f7f7a39c0027e3c3a00b012085de553375de4533618553a0155393f7e438620438710085de5123753375de41a363910a1
:40124000b005785537ff5f35375334553801105dd3085dd00851345835703f71c07c05f6703f71001860d01860d320183c3b00b00e553a005539004187ef4186df7e7a3b23
:40128000a00e553a005539004187ef4186df7e711041e73f43e78070ef41e1fd7e21034f085d7721fc2b00607718703f71c07f21fc4f085d752107480004b00e4174fe2bbf
:4012c00000607518703f71c07f2700182b00607543740118703f71c07f4177fc7f900d4386204387106225ff4327017f4f2103085d8721fc2b00608718703f71c07f41e10a
:40130000fd4187fc4127fe7f62d0004187ef4186df553a00553900533b5d26b004622601711041e73f43e74070ef62dbfd43e1027f711041e73f43e78070ef41e1fd4386a4
:40134000204387107f62d00051387f62d000553800583451353c3800bff57f62d00055380051357f62d000583451357f62d00051357f62d00051385538007f60267f104f59
:4013800038041052fc7c05de62d00053fc5afd20507f100857c22853fb18750900282004fc51fb0cfd51fc53fa51fd53fb47fb80a00955fcff55fdff800a62d00055fc0044
:4013c00055fd0062d00051fd0851fc0851fb0851fa085000080850030850e8087c307f38fc18540318540218540118540050000808500608502708520008520108520208b9
:401400005203087c2f7118540318540218540118540038fc520353fc520253fd38fc207f104f380662d00052fc53fc52fb5afa62d5071055f90058fc082862d0003ffa187e
:4014400075090076f93cf906bfef203d0101b023520553fc55fd0006fcd00efd0051fd60d43efc7afc53fb2efb0151fd60d551fb3ffc3d0201b02662d000520553fc55fd9b
:401480000006fcd00efd0051fd60d43efc7afc53fb2efb0251fd60d551fb3ffc3d0401b02662d000520553fc55fd0006fcd00efd0051fd60d43efc7afc53fb2efb0451fd80
:4014c00060d551fb3ffc105204085205207c1b2d205000085205087c1ced38fe1052057c1a852062d000520553fc55fd0006fcc30efd0051fd60d550003ffc107c093a621a
:40150000d0002053fd520553fa55fb0006fadd0efb0051fb60d551fd3ffa38fa207f104f380662d00052fc53fc52fb5afa62d5071055f90058fc082862d0003ffa1875098a
:401540000076f93cf906bfef203d0100b018520553fc55fd0006fcc30efd0051fd60d550023ffc81343dfa00b04362d000520553fc55fd0006fcc30efd0051fd60d5500069
:401580003ffc56fa003d0201b023520553fc55fd0006fcd00efd0051fd60d43efc7afc53fb26fbfd51fd60d551fb3ffc62d000520553fc55fd0006fcc30efd0051fd60d494
:4015c0003efc3901b084107c093a62d0002053fd520553fa55fb0006fadd0efb0051fb60d43efa14fd52033afdd05f62d000520553fc55fd0006fcc30efd0051fd60d550a7
:40160000023ffc3d0201b023520553fc55fd0006fcd00efd0051fd60d43efc7afc53fb2efb0251fd60d551fb3ffc107c093a62d0002053fd520553fa55fb0006fadd0efb85
:401640000051fb60d551fd3ffa62d000520553fc55fd0006fcc30efd0051fd60d43efc3900b0363dfa01c03162d000520553fc55fd0006fcc30efd0051fd60d550013ffc5b
:40168000520553fc55fd0006fcdd0efd0051fd60d550003ffc56fa6462d000520553fc55fd0006fcc30efd0051fd60d43efc3901b00456fa6452fa085205087c1ced38fec0
:4016c00038fa207f104f380962d00052fc53fc52fb5afa62d5071055f90058fc082862d0003ffa1875090076f93cf909bfef2043d601105204085205085203085202087c51
:4017000011b438fc2050003b06d011105207085208085206087c11cd38fd20107c1166201052017c11772038f7207f104f62d00052fc010153fc52fb09001058fc2820533f
:40174000fd52fa04fd1051fd7c117720207f107c0cf5207f104f207f104f380562d00052fc010153fc52fb09001058fc282054045204087c137e38ff62d00051fc54035144
:40178000fd5402480280a0095601ff5600ff8007560100560000520008520108520208520308500008500108504808508f0862d0007c307f38fc18540318540218540118eb
:4017c000540050ff0850fe085079085060085200085201085202085203087c2f7118540318540218540118540038fc0703240f02060f01000f0000520453fc55fd0065fc2f
:401800006bfd06fcc40efd7f51fd100858fc2853fd18750900282053fa51fd53fb47fb80a00955fcff55fdff800a62d00055fc0055fd0062d00051fa050351fb0d0251fc5f
:401840000d0151fd0d00520311da520219fd520119ff52003180197fd00d5600ff5601ff5602fd5603da5014130350051b0250001b015200318062d00053f950801af9d0b3
:401880000d56000056010056020556031462d000520353fc520253fd38fb207f104f380162d00052fc010253fc52fb09001058fc28205400107c093a20010762d00053ff1d
:4018c000520062d00053fe52fb0852fc08903038fe62d000520053fa55fb0065fa6bfb06fa340efb0151fb60d551fd3ffa51fc3ffa107c093a2062d00053ff38ff207f1067
:401900004f380762d00052fc010153fc52fb09001058fc28200148540352fc010253fc52fb09001058fc2820540062d00051fe3b00b115107c093a62d0002053fd62d0008b
:4019400051ff62d00014fd50063afdd0fb107c093a2062d00053ff56040056017d5602551050000850010862d0005afc06fc0450070851fc085203087c0d7862d00038fb68
:4019800020105000085002085afc06fc0150070851fc085203087c0d1362d00038fb2054053d0500a06c3d0255a06752022180540652015402480280a0065601ff800456e0
:4019c000010062d000520253fc520153fd55fa0a55fb0055f90055f8003cfb00b0063cfa00a01a70fb6efb6efad00c62d00051fc04f951fd0cf865fc6bfd8fde51f9540291
:401a000051f854013d0600a00f0702050f010080075602e256010462d000520053fc55fd0065fc6bfd06fc340efd0151fd60d552013ffc52023ffc62d00076fe3cfe05c067
:401a40000762d00055fe0062d000520053fc55fd0065fc6bfd06fc340efd0151fd60d43efc53fd3efc53fc38f9207f2732333435363740414243444500040506070809101d
:401a800011121314156464e001407d0cb7407d0c70407d0c29407d0be2407d0b9b407d0b54407d0b0d407d0ac6407d0a7f407d0a38407d09f1407d09aa407d09636464e0ab
:401ac000015b7d0cc25b7d0c7b5b7d0c345b7d0bed5b7d0ba65b7d0b5f5b7d0b185b7d0ad15b7d0a8a5b7d0a435b7d09fc5b7d09b55b7d096e6464e00150f97f4050f97fb3
:401b00004050f97f4050f97f4050f97f4050f97f4050f97f4050f97f4050f97f4050f97f4050f97f4050f97f4050f97f40085bb06f18646464e00141b40f43b4c0407f41ab
:401b4000bcf043bc0c407f41bc0f43bcc0407f41bbf043bb0c407f41bb0f43bbc0407f41c4f043c40c407f41c40f43c4c0407f41c3f043c30c407f41c30f43c3c0407f4129
:401b8000ccf043cc0c407f41cc0f43ccc0407f41cbf043cb0c407f41cb0f43cbc0407f18646464e00141b40f43b430407f41bcf043bc03407f41bc0f43bc30407f41bbf0c5
:401bc00043bb03407f41bb0f43bb30407f41c4f043c403407f41c40f43c430407f41c3f043c303407f41c30f43c330407f41ccf043cc03407f41cc0f43cc30407f41cbf0bd
:401c000043cb03407f41cb0f43cb30407f085bb06f18646464e00141b40f43b400407f41bcf043bc00407f41bc0f43bc00407f41bbf043bb00407f41bb0f43bb00407f4134
:401c4000c4f043c400407f41c40f43c400407f41c3f043c300407f41c30f43c300407f41ccf043cc00407f41cc0f43cc00407f41cbf043cb00407f41cb0f43cb00407f1801
:401c8000646464e00141b40f43b4f0407f41bcf043bc0f407f41bc0f43bcf0407f41bbf043bb0f407f41bb0f43bbf0407f41c4f043c40f407f41c40f43c4f0407f41c3f001
:401cc00043c30f407f41c30f43c3f0407f41ccf043cc0f407f41cc0f43ccf0407f41cbf043cb0f407f41cb0f43cbf0407f104f380250643bfbd00456fb641052fc7c1af5ef
:401d000062d00020540052fb53fc55fd00520053fa55fb0006fa010efb0055f90055f8003cfb00b0063cfa00a01a70fb6efb6efad00c62d00051fc04f951fd0cf865fc6bec
:401d4000fd8fde5ffcf95ffdf862d00050000850640851fd0851fc087c2f231853fc1838fe51fc54011052010852fc207c1abd2038fe207f104f380162d00052fc010353ab
:401d8000fc52fb09001058fc28205400520053fc55fd0065fc6bfd06fc1a0efd0151fd60d43efc53fd3efc53fc51fd1058fc282053fd520053fa55fb0006faea0efb0051db
:401dc000fb60d551fd3ffa38ff207f104f380962d00052fc010353fc52fb09001058fc2820540452fc010153fc52fb09001058fc28205407520453fc55fd0006fc890efd00
:401e00000651fd1058fc28205408520453fc55fd0065fc6bfd06fca90efd0051fd60d43efc53fd3efc53fc501412fc50001afdd03e62d000520453fc55fd0065fc6bfd065c
:401e4000fca90efd0051fd60d43efc54053efc5406520453fc55fd0065fc6bfd06fc000efd0151fd60d552053ffc52063ffc62d000520453fc55fd0065fc6bfd06fca90ee8
:401e8000fd0051fd60d43efc53fd3efc53fc501412fc50001afdc02162d000520453fc55fd0065fc6bfd06fc000efd0151fd60d43efc54053efc540662d000520653fa5204
:401ec0000553fb5000080851fb0851fa08500708502708500e085000087c2f7118540318540218540118540038fc520853fc55fd00520753fa55fb0055f90055f8003cfb23
:401f000000b0063cfa00a01a70fb6efb6efad00c62d00051fc04f951fd0cf865fc6bfd8fde5ffcf95ffdf862d00051fc53fa51fd53fb47fb80a00955fcff55fdff800a62d7
:401f4000d00055fc0055fd0062d00051fd0851fc0851fb0851fa085200085201085202085203087c2f7118540318540218540118540038fc50a8130350611b0250001b01ae
:401f80005200318053f950801af9d00d5600005601005602615603a85203112c5202190152011900520031801980d00d56000056010056020056030062d000520453fc553c
:401fc000fd0065fc6bfd06fca90efd0051fd60d43efc53fd3efc3cfdffb01139ffb00d56000056010056020056030062d000520353fc520253fd38f7207f7f7f7f7101108c
:402000007c08f0201050087c09017c08e8201050037c129d201050037c12dd7c05b7201050007c1308204304204304807c174e7c06b141d6fc62d000553d00553c00553f69
:4020400000553e00554100554000554300554200554500554400554700554600554900554800554b00554a00554d00554c00554f00554e005551005550005553005552006b
:40208000555500555400555600555700555800555900555a00555b00555c00555d00555e00555f0055600055610055620055642c55630155662c55650155682c5567015595
:4020c0006a2c556901556c2c556b01556e2c556d0155702c556f0155722c55710155742c55730155762c55750155782c557701557a2c557901557c2c557b01557d00557f37
:4021000000557e00558100558000558300558200558500558400558600558700558800558900558a00558b00558c00558e00558d0050010850a6087c16c450010850af08db
:402140007c189c38fc50010850b2087c189c50010850b5087c189c38fc50010850b8087c189c50010850bb087c189c38fc50010850be087c175450010850c0087c1754384f
:40218000fc50010850c2087c175450010850c4087c175438fc50010850c6087c175450010850c8087c175438fc50010850ca087c175450010850cc087c175438fc500108f4
:4021c00050ce087c142050010850d4087c142038fc50010850da087c142050010850e0087c142038fc50010850e6087c142050010850ec087c142038fc50010850f2087c09
:40220000142050010850f8087c142038fc50010850fe087c14205002085004087c142038fc500208500a087c14205002085010087c142038fc5002085016087c1420500208
:4022400008501c087c1d7438fc5002085020087c1d745002085024087c1d7438fc5002085028087c1d74500208502c087c1d7438fc5002085030087c1d74500208503408d0
:402280007c1d7438fc5002085038087c1d74500208503c087c1d7438fc5002085040087c1d745002085044087c1d7438fc5002085048087c1d74500208504c087c1d743837
:4022c000fc7c1ffa83a210570050087c09292050010850be087c175838fe62d00051fc0851fd62d000533c18533d50010850c0087c175838fe62d00051fc0851fd62d00034
:40230000533e18533f50010850c2087c175838fe62d00051fc0851fd62d000534018534150010850c4087c175838fe62d00051fc0851fd62d000534218534350010850c639
:40234000087c175838fe62d00051fc0851fd62d000534418534550010850c8087c175838fe62d00051fc0851fd62d000534618534750010850ca087c175838fe62d00051db
:40238000fc0851fd62d000534818534950010850cc087c175838fe62d00051fc0851fd62d000534a18534b50010850af087c18ff38fe62d00051fc0851fd62d000534c186b
:4023c000534d50010850b2087c18ff38fe62d00051fc0851fd62d000534e18534f50010850b5087c18ff38fe62d00051fc0851fd62d000535018535150010850b8087c181d
:40240000ff38fe62d00051fc0851fd62d000535218535350010850bb087c18ff38fe62d00051fc0851fd62d0005354185355500208501c087c1dcb38fe62d00051fc08511a
:40244000fd62d00053631853645002085020087c1dcb38fe62d00051fc0851fd62d00053651853665002085024087c1dcb38fe62d00051fc0851fd62d00053671853685058
:4024800002085028087c1dcb38fe62d00051fc0851fd62d000536918536a500208502c087c1dcb38fe62d00051fc0851fd62d000536b18536c5002085030087c1dcb38fed0
:4024c00062d00051fc0851fd62d000536d18536e5002085034087c1dcb38fe62d00051fc0851fd62d000536f1853705002085038087c1dcb38fe62d00051fc0851fd62d08d
:40250000005371185372500208503c087c1dcb38fe62d00051fc0851fd62d00053731853745002085040087c1dcb38fe62d00051fc0851fd62d000537518537650020850e0
:4025400044087c1dcb38fe62d00051fc0851fd62d00053771853785002085048087c1dcb38fe62d00051fc0851fd62d000537918537a500208504c087c1dcb38fe62d000ab
:4025800051fc0851fd62d000537b18537c7c1ffb7c2ed47c1ffc62d00051560850010850ce087c151e38fd62d00051570850010850d4087c151e62d0005158085001085000
:4025c000da087c151e38fa62d00051590850010850e0087c151e62d000515a0850010850e6087c151e38fa62d000515b0850010850ec087c151e62d000515c0850010850d5
:40260000f2087c151e38fa62d000515d0850010850f8087c151e62d000515e0850010850fe087c151e38fa62d000515f085002085004087c151e62d0005160085002085022
:402640000a087c151e38fa62d0005161085002085010087c151e62d0005162085002085016087c151e38fa8c5e8fff1008500f08901538fd703f71c07f100850f00890074d
:4026800038fd703f71c07f38024f52fa2103010c48fbf0b0056464646454ff52f9646401210871105c5e004f23fa2bfe20610070ef4f56ff0048fa10a0042fff0248fa04b8
:4026c000a0042fff0156fe0352fa2103a00c66fe66fe66ff66ff78bff637feff52f921fc6401b0085c5e004f23fd2bfe2061004f52fa56ff01210fa00666ff78bffc52fa9e
:40270000217067670102085c5e004f2bfe20610038fe703f71c07f084f0856ff01210fa00666ff78bffc37ffff18217067670102085c5e004f23fe20610018703f71c07feb
:40274000100850ff08901538fd703f71c07f1008500008900738fd703f71c07f084f52fb2103290423fc54ff52fa646401220871105c5e0021f84f2bfe20610070ef4f5025
:402780000148fb10a003646448fb04a0026448fb01a005646464647333fc54ff52fa21fc6401b548fb02a00274085c5e004f3dfbffb0052bfe800323fe2061004f56ff01d1
:4027c00052fb210fa00666ff78bffc52fc7335ff52fb217067670102085c5e004f3dfbffb0052bfe800323fe20610018703f71c07f1038034f54ff217067670856fe0152bd
:40280000ff210fa00666fe78bffc52fe7354fd711020105e004f48fb01a0052bfd800323fc2061005e01104f48fb02a0052bfd800323fc20610170ef5e03104f48fb04a08c
:40284000052bfd800323fc20610338fc703f71c07f104f380162d000517d5400513d112c513c31801981d006560000803b62d00050e8123d513c318062d00053f950831a9a
:40288000f9c02262d000500008500a08513c08513d0862d0007c2f231853fc1838fe51fc54008004560064520062d000537d38ff207f104f380262d000517f5401517e5455
:4028c00000514f112c514e31801981d009560100560000803c62d00050e8124f514e318062d00053f950831af9c02062d000500008500a08514e08514f0862d0007c2f2335
:4029000018540118540038fe800756016456000062d0005201537f5200537e38fe207f104f380262d00051815401518054005151112c515031801981d00956010056000039
:40294000803c62d00050e812515150318062d00053f950831af9c02062d000500008500a0851500851510862d0007c2f2318540118540038fe800756016456000062d00020
:40298000520153815200538038fe207f104f380262d00051835401518254005153112c515231801981d009560100560000803c62d00050e812535152318062d00053f950d9
:4029c000831af9c02062d000500008500a0851520851530862d0007c2f2318540118540038fe800756016456000062d000520153835200538238fe207f104f380262d00055
:402a000051855401518454005155112c515431801981d009560100560000803562d000515511e8515431801983d02062d000500008500a0851540851550862d0007c2f233a
:402a400018540118540038fe800756016456000062d000520153855200538438fe207f104f380162d00051865400513f112c513e31801981d006560000803b62d00050e867
:402a8000123f513e318062d00053f950831af9c02262d000500008500a08513e08513f0862d0007c2f231853fc1838fe51fc54008004560064520062d000538638ff207f5d
:402ac000104f380162d000518754005141112c514031801981d006560000803b62d00050e812415140318062d00053f950831af9c02262d000500008500a085140085141f2
:402b00000862d0007c2f231853fc1838fe51fc54008004560064520062d000538738ff207f104f380162d000518854005143112c514231801981d006560000803b62d00006
:402b400050e812435142318062d00053f950831af9c02262d000500008500a0851420851430862d0007c2f231853fc1838fe51fc54008004560064520062d000538838fff1
:402b8000207f104f380162d000518954005145112c514431801981d006560000803b62d00050e812455144318062d00053f950831af9c02262d000500008500a085144080e
:402bc00051450862d0007c2f231853fc1838fe51fc54008004560064520062d000538938ff207f104f380162d000518a54005147112c514631801981d006560000803b6274
:402c0000d00050e812475146318062d00053f950831af9c02262d000500008500a0851460851470862d0007c2f231853fc1838fe51fc54008004560064520062d000538a85
:402c400038ff207f104f380162d000518b54005149112c514831801981d006560000803b62d00050e812495148318062d00053f950831af9c02262d000500008500a085150
:402c8000480851490862d0007c2f231853fc1838fe51fc54008004560064520062d000538b38ff207f104f380162d000518c5400514b112c514a31801981d00656000080f0
:402cc0003b62d00050e8124b514a318062d00053f950831af9c02262d000500008500a08514a08514b0862d0007c2f231853fc1838fe51fc54008004560064520062d000f5
:402d0000538c38ff207f104f380262d000518e5401518d5400514d112c514c31801981d009560100560000803c62d00050e8124d514c318062d00053f950831af9c02062eb
:402d4000d000500008500a08514c08514d0862d0007c2f2318540118540038fe800756016456000062d0005201538e5200538d38fe207f104f380162d00051565400517dd7
:402d80005400520062d000535638ff207f104f380162d00051575400517f62d0005400520062d000535738ff207f104f380162d00051585400518162d0005400520062d0f9
:402dc00000535838ff207f104f380162d00051595400518362d0005400520062d000535938ff207f104f380162d000515a5400518562d0005400520062d000535a38ff207d
:402e00007f104f380162d000515b540051865400520062d000535b38ff207f104f380162d000515c540051875400520062d000535c38ff207f104f380162d000515d54004a
:402e400051885400520062d000535d38ff207f104f380162d000515e540051895400520062d000535e38ff207f104f380162d000515f5400518a5400520062d000535f38aa
:402e8000ff207f104f380162d00051605400518b5400520062d000536038ff207f104f380162d00051615400518c5400520062d000536138ff207f104f380162d0005162dc
:402ec0005400518e62d0005400520062d000536238ff207f7c2d067c2ca57c2c447c2be37c2b827c2b217c2ac07c2a5f7c29f97c298c7c291f7c28b27c28517c2eb77c2e53
:402f00009d7c2e837c2e697c2e4f7c2e357c2e1b7c2e017c2de47c2dc77c2daa7c2d8d7c2d737f104f50003dfb80c00d37fcff77fc37fbff0dfb50c03df980c00e37faff75
:402f400077fa37f9ff0ff9003180087c2fae186ad00c37fcff37fbff77fc0ffb006ad00c37faff37f9ff77fa0ff90020703f71c07f104f380150003df980c0067c304a5012
:402f8000c03df580c00c104b11044b7c304a318020087c2fe7186ad0047c304a6ad0084b11044b7c304a38ff20703f71c07f5dd00862d000500053f853f955f71066fc6c5a
:402fc000fb6bf86bf951f81bfa51f91bf9c00953f952fa1cf877fc7af7bfe351f854fa51f954f91860d07f5dd00862d00051fd08500053fd53f953f853f756002066fc6ce1
:40300000fb6cfa6cf96bf76bf86bf96bfd51f71bf851f81bf751f91bf651fd1bf5c01153fd52f814f752f71cf852f61cf977fc7b00bfcb51f754f851f854f751f954f65115
:40304000fd54f51853fd1860d07f37fcff77fc37fbff0ffb0037faff0ffa0037f9ff0ff9007f53f960e851f860e95dea47f980a00302f847f880a00302f953f95deb7f10c2
:403080004f5dd00862d00052f560e852fc53f860e95deb54f552f67c306254f651f905f552fb60e95deb05f552f84cf87c306254f85ff7f952fb7c306204f751f90df60fb3
:4030c000f50052fa7c306205f651f90df552f960e85deb05f552f753f852fc7c306202f754f751f90df60ff50052fb7c306205f651f90df552fa60e85deb05f51860d02000
:40310000703f71c07f003c005300ea000d00fe001c011a1a01a501d901df01e501eb01a501a501a501a501a501a501a5021b0134000aff0030303030303030303030303004
:40314000303030303030303030303030303030303030303030303030303030303030303030303030303030303030303030303030303030303030303030303030303030304f
:40318000303030303030303030303030303030303030303030303030303030303030303030303030303030303030303030303030303030303030303030303030303030300f
:4031c00030303030303030303030303030303030303030303030303030303030303030303030303030303030303030303030303030303030303030303030303030303030cf
:40320000303030303030303030303030303030303030303030303030303030303030303030303030303030303030303030303030303030303030303030303030303030308e
:40324000303030303030303030303030303030303030303030303030303030303030303030303030303030303030303030303030303030303030303030303030303030304e
:40328000303030303030303030303030303030303030303030303030303030303030303030303030303030303030303030303030303030303030303030303030303030300e
:4032c00030303030303030303030303030303030303030303030303030303030303030303030303030303030303030303030303030303030303030303030303030303030ce
:40330000303030303030303030303030303030303030303030303030303030303030303030303030303030303030303030303030303030303030303030303030303030308d
:40334000303030303030303030303030303030303030303030303030303030303030303030303030303030303030303030303030303030303030303030303030303030304d
:40338000303030303030303030303030303030303030303030303030303030303030303030303030303030303030303030303030303030303030303030303030303030300d
:4033c00030303030303030303030303030303030303030303030303030303030303030303030303030303030303030303030303030303030303030303030303030303030cd
:40340000303030303030303030303030303030303030303030303030303030303030303030303030303030303030303030303030303030303030303030303030303030308c
:40344000303030303030303030303030303030303030303030303030303030303030303030303030303030303030303030303030303030303030303030303030303030304c
:40348000303030303030303030303030303030303030303030303030303030303030303030303030303030303030303030303030303030303030303030303030303030300c
:4034c00030303030303030303030303030303030303030303030303030303030303030303030303030303030303030303030303030303030303030303030303030303030cc
:40350000303030303030303030303030303030303030303030303030303030303030303030303030303030303030303030303030303030303030303030303030303030308b
:40354000303030303030303030303030303030303030303030303030303030303030303030303030303030303030303030303030303030303030303030303030303030304b
:40358000303030303030303030303030303030303030303030303030303030303030303030303030303030303030303030303030303030303030303030303030303030300b
:4035c00030303030303030303030303030303030303030303030303030303030303030303030303030303030303030303030303030303030303030303030303030303030cb
:40360000303030303030303030303030303030303030303030303030303030303030303030303030303030303030303030303030303030303030303030303030303030308a
:40364000303030303030303030303030303030303030303030303030303030303030303030303030303030303030303030303030303030303030303030303030303030304a
:40368000303030303030303030303030303030303030303030303030303030303030303030303030303030303030303030303030303030303030303030303030303030300a
:4036c00030303030303030303030303030303030303030303030303030303030303030303030303030303030303030303030303030303030303030303030303030303030ca
:403700003030303030303030303030303030303030303030303030303030303030303030303030303030303030303030303030303030303030303030303030303030303089
:403740003030303030303030303030303030303030303030303030303030303030303030303030303030303030303030303030303030303030303030303030303030303049
:403780003030303030303030303030303030303030303030303030303030303030303030303030303030303030303030303030303030303030303030303030303030303009
:4037c00030303030303030303030303030303030303030303030303030303030303030303030303030303030303030303030303030303030303030303030303030303030c9
:403800003030303030303030303030303030303030303030303030303030303030303030303030303030303030303030303030303030303030303030303030303030303088
:403840003030303030303030303030303030303030303030303030303030303030303030303030303030303030303030303030303030303030303030303030303030303048
:403880003030303030303030303030303030303030303030303030303030303030303030303030303030303030303030303030303030303030303030303030303030303008
:4038c00030303030303030303030303030303030303030303030303030303030303030303030303030303030303030303030303030303030303030303030303030303030c8
:403900003030303030303030303030303030303030303030303030303030303030303030303030303030303030303030303030303030303030303030303030303030303087
:403940003030303030303030303030303030303030303030303030303030303030303030303030303030303030303030303030303030303030303030303030303030303047
:403980003030303030303030303030303030303030303030303030303030303030303030303030303030303030303030303030303030303030303030303030303030303007
:4039c00030303030303030303030303030303030303030303030303030303030303030303030303030303030303030303030303030303030303030303030303030303030c7
:403a00003030303030303030303030303030303030303030303030303030303030303030303030303030303030303030303030303030303030303030303030303030303086
:403a40003030303030303030303030303030303030303030303030303030303030303030303030303030303030303030303030303030303030303030303030303030303046
:403a80003030303030303030303030303030303030303030303030303030303030303030303030303030303030303030303030303030303030303030303030303030303006
:403ac00030303030303030303030303030303030303030303030303030303030303030303030303030303030303030303030303030303030303030303030303030303030c6
:403b00003030303030303030303030303030303030303030303030303030303030303030303030303030303030303030303030303030303030303030303030303030303085
:403b40003030303030303030303030303030303030303030303030303030303030303030303030303030303030303030303030303030303030303030303030303030303045
:403b80003030303030303030303030303030303030303030303030303030303030303030303030303030303030303030303030303030303030303030303030303030303005
:403bc00030303030303030303030303030303030303030303030303030303030303030303030303030303030303030303030303030303030303030303030303030303030c5
:403c00003030303030303030303030303030303030303030303030303030303030303030303030303030303030303030303030303030303030303030303030303030303084
:403c40003030303030303030303030303030303030303030303030303030303030303030303030303030303030303030303030303030303030303030303030303030303044
:403c80003030303030303030303030303030303030303030303030303030303030303030303030303030303030303030303030303030303030303030303030303030303004
:403cc00030303030303030303030303030303030303030303030303030303030303030303030303030303030303030303030303030303030303030303030303030303030c4
:403d00003030303030303030303030303030303030303030303030303030303030303030303030303030303030303030303030303030303030303030303030303030303083
:403d40003030303030303030303030303030303030303030303030303030303030303030303030303030303030303030303030303030303030303030303030303030303043
:403d80003030303030303030303030303030303030303030303030303030303030303030303030303030303030303030303030303030303030303030303030303030303003
:403dc00030303030303030303030303030303030303030303030303030303030303030303030303030303030303030303030303030303030303030303030303030303030c3
:403e00003030303030303030303030303030303030303030303030303030303030303030303030303030303030303030303030303030303030303030303030303030303082
:403e40003030303030303030303030303030303030303030303030303030303030303030303030303030303030303030303030303030303030303030303030303030303042
:403e80003030303030303030303030303030303030303030303030303030303030303030303030303030303030303030303030303030303030303030303030303030303002
:403ec00030303030303030303030303030303030303030303030303030303030303030303030303030303030303030303030303030303030303030303030303030303030c2
:403f00003030303030303030303030303030303030303030303030303030303030303030303030303030303030303030303030303030303030303030303030303030303081
:403f40003030303030303030303030303030303030303030303030303030303030303030303030303030303030303030303030303030303030303030303030303030303041
:403f80003030303030303030303030303030303030303030303030303030303030303030303030303030303030303030303030303030303030303030303030303030303001
:403fc00030303030303030303030303030303030303030303030303030303030303030303030303030303030303030303030303030303030303030303030303030303030c1
:404000003030303030303030303030303030303030303030303030303030303030303030303030303030303030303030303030303030303030303030303030303030303080
:404040003030303030303030303030303030303030303030303030303030303030303030303030303030303030303030303030303030303030303030303030303030303040
:404080003030303030303030303030303030303030303030303030303030303030303030303030303030303030303030303030303030303030303030303030303030303000
:4040c00030303030303030303030303030303030303030303030303030303030303030303030303030303030303030303030303030303030303030303030303030303030c0
:40410000303030303030303030303030303030303030303030303030303030303030303030303030303030303030303030303030303030303030303030303030303030307f
:40414000303030303030303030303030303030303030303030303030303030303030303030303030303030303030303030303030303030303030303030303030303030303f
:4041800030303030303030303030303030303030303030303030303030303030303030303030303030303030303030303030303030303030303030303030303030303030ff
:4041c00030303030303030303030303030303030303030303030303030303030303030303030303030303030303030303030303030303030303030303030303030303030bf
:40420000303030303030303030303030303030303030303030303030303030303030303030303030303030303030303030303030303030303030303030303030303030307e
:40424000303030303030303030303030303030303030303030303030303030303030303030303030303030303030303030303030303030303030303030303030303030303e
:4042800030303030303030303030303030303030303030303030303030303030303030303030303030303030303030303030303030303030303030303030303030303030fe
:4042c00030303030303030303030303030303030303030303030303030303030303030303030303030303030303030303030303030303030303030303030303030303030be
:40430000303030303030303030303030303030303030303030303030303030303030303030303030303030303030303030303030303030303030303030303030303030307d
:40434000303030303030303030303030303030303030303030303030303030303030303030303030303030303030303030303030303030303030303030303030303030303d
:4043800030303030303030303030303030303030303030303030303030303030303030303030303030303030303030303030303030303030303030303030303030303030fd
:4043c00030303030303030303030303030303030303030303030303030303030303030303030303030303030303030303030303030303030303030303030303030303030bd
:40440000303030303030303030303030303030303030303030303030303030303030303030303030303030303030303030303030303030303030303030303030303030307c
:40444000303030303030303030303030303030303030303030303030303030303030303030303030303030303030303030303030303030303030303030303030303030303c
:4044800030303030303030303030303030303030303030303030303030303030303030303030303030303030303030303030303030303030303030303030303030303030fc
:4044c00030303030303030303030303030303030303030303030303030303030303030303030303030303030303030303030303030303030303030303030303030303030bc
:40450000303030303030303030303030303030303030303030303030303030303030303030303030303030303030303030303030303030303030303030303030303030307b
:40454000303030303030303030303030303030303030303030303030303030303030303030303030303030303030303030303030303030303030303030303030303030303b
:4045800030303030303030303030303030303030303030303030303030303030303030303030303030303030303030303030303030303030303030303030303030303030fb
:4045c00030303030303030303030303030303030303030303030303030303030303030303030303030303030303030303030303030303030303030303030303030303030bb
:40460000303030303030303030303030303030303030303030303030303030303030303030303030303030303030303030303030303030303030303030303030303030307a
:40464000303030303030303030303030303030303030303030303030303030303030303030303030303030303030303030303030303030303030303030303030303030303a
:4046800030303030303030303030303030303030303030303030303030303030303030303030303030303030303030303030303030303030303030303030303030303030fa
:4046c00030303030303030303030303030303030303030303030303030303030303030303030303030303030303030303030303030303030303030303030303030303030ba
:404700003030303030303030303030303030303030303030303030303030303030303030303030303030303030303030303030303030303030303030303030303030303079
:404740003030303030303030303030303030303030303030303030303030303030303030303030303030303030303030303030303030303030303030303030303030303039
:4047800030303030303030303030303030303030303030303030303030303030303030303030303030303030303030303030303030303030303030303030303030303030f9
:4047c00030303030303030303030303030303030303030303030303030303030303030303030303030303030303030303030303030303030303030303030303030303030b9
:404800003030303030303030303030303030303030303030303030303030303030303030303030303030303030303030303030303030303030303030303030303030303078
:404840003030303030303030303030303030303030303030303030303030303030303030303030303030303030303030303030303030303030303030303030303030303038
:4048800030303030303030303030303030303030303030303030303030303030303030303030303030303030303030303030303030303030303030303030303030303030f8
:4048c00030303030303030303030303030303030303030303030303030303030303030303030303030303030303030303030303030303030303030303030303030303030b8
:404900003030303030303030303030303030303030303030303030303030303030303030303030303030303030303030303030303030303030303030303030303030303077
:404940003030303030303030303030303030303030303030303030303030303030303030303030303030303030303030303030303030303030303030303030303030303037
:4049800030303030303030303030303030303030303030303030303030303030303030303030303030303030303030303030303030303030303030303030303030303030f7
:4049c00030303030303030303030303030303030303030303030303030303030303030303030303030303030303030303030303030303030303030303030303030303030b7
:404a00003030303030303030303030303030303030303030303030303030303030303030303030303030303030303030303030303030303030303030303030303030303076
:404a40003030303030303030303030303030303030303030303030303030303030303030303030303030303030303030303030303030303030303030303030303030303036
:404a800030303030303030303030303030303030303030303030303030303030303030303030303030303030303030303030303030303030303030303030303030303030f6
:404ac00030303030303030303030303030303030303030303030303030303030303030303030303030303030303030303030303030303030303030303030303030303030b6
:404b00003030303030303030303030303030303030303030303030303030303030303030303030303030303030303030303030303030303030303030303030303030303075
:404b40003030303030303030303030303030303030303030303030303030303030303030303030303030303030303030303030303030303030303030303030303030303035
:404b800030303030303030303030303030303030303030303030303030303030303030303030303030303030303030303030303030303030303030303030303030303030f5
:404bc00030303030303030303030303030303030303030303030303030303030303030303030303030303030303030303030303030303030303030303030303030303030b5
:404c00003030303030303030303030303030303030303030303030303030303030303030303030303030303030303030303030303030303030303030303030303030303074
:404c40003030303030303030303030303030303030303030303030303030303030303030303030303030303030303030303030303030303030303030303030303030303034
:404c800030303030303030303030303030303030303030303030303030303030303030303030303030303030303030303030303030303030303030303030303030303030f4
:404cc00030303030303030303030303030303030303030303030303030303030303030303030303030303030303030303030303030303030303030303030303030303030b4
:404d00003030303030303030303030303030303030303030303030303030303030303030303030303030303030303030303030303030303030303030303030303030303073
:404d40003030303030303030303030303030303030303030303030303030303030303030303030303030303030303030303030303030303030303030303030303030303033
:404d800030303030303030303030303030303030303030303030303030303030303030303030303030303030303030303030303030303030303030303030303030303030f3
:404dc00030303030303030303030303030303030303030303030303030303030303030303030303030303030303030303030303030303030303030303030303030303030b3
:404e00003030303030303030303030303030303030303030303030303030303030303030303030303030303030303030303030303030303030303030303030303030303072
:404e40003030303030303030303030303030303030303030303030303030303030303030303030303030303030303030303030303030303030303030303030303030303032
:404e800030303030303030303030303030303030303030303030303030303030303030303030303030303030303030303030303030303030303030303030303030303030f2
:404ec00030303030303030303030303030303030303030303030303030303030303030303030303030303030303030303030303030303030303030303030303030303030b2
:404f00003030303030303030303030303030303030303030303030303030303030303030303030303030303030303030303030303030303030303030303030303030303071
:404f40003030303030303030303030303030303030303030303030303030303030303030303030303030303030303030303030303030303030303030303030303030303031
:404f800030303030303030303030303030303030303030303030303030303030303030303030303030303030303030303030303030303030303030303030303030303030f1
:404fc00030303030303030303030303030303030303030303030303030303030303030303030303030303030303030303030303030303030303030303030303030303030b1
:405000003030303030303030303030303030303030303030303030303030303030303030303030303030303030303030303030303030303030303030303030303030303070
:405040003030303030303030303030303030303030303030303030303030303030303030303030303030303030303030303030303030303030303030303030303030303030
:4050800030303030303030303030303030303030303030303030303030303030303030303030303030303030303030303030303030303030303030303030303030303030f0
:4050c00030303030303030303030303030303030303030303030303030303030303030303030303030303030303030303030303030303030303030303030303030303030b0
:40510000303030303030303030303030303030303030303030303030303030303030303030303030303030303030303030303030303030303030303030303030303030306f
:40514000303030303030303030303030303030303030303030303030303030303030303030303030303030303030303030303030303030303030303030303030303030302f
:4051800030303030303030303030303030303030303030303030303030303030303030303030303030303030303030303030303030303030303030303030303030303030ef
:4051c00030303030303030303030303030303030303030303030303030303030303030303030303030303030303030303030303030303030303030303030303030303030af
:40520000303030303030303030303030303030303030303030303030303030303030303030303030303030303030303030303030303030303030303030303030303030306e
:40524000303030303030303030303030303030303030303030303030303030303030303030303030303030303030303030303030303030303030303030303030303030302e
:4052800030303030303030303030303030303030303030303030303030303030303030303030303030303030303030303030303030303030303030303030303030303030ee
:4052c00030303030303030303030303030303030303030303030303030303030303030303030303030303030303030303030303030303030303030303030303030303030ae
:40530000303030303030303030303030303030303030303030303030303030303030303030303030303030303030303030303030303030303030303030303030303030306d
:40534000303030303030303030303030303030303030303030303030303030303030303030303030303030303030303030303030303030303030303030303030303030302d
:4053800030303030303030303030303030303030303030303030303030303030303030303030303030303030303030303030303030303030303030303030303030303030ed
:4053c00030303030303030303030303030303030303030303030303030303030303030303030303030303030303030303030303030303030303030303030303030303030ad
:40540000303030303030303030303030303030303030303030303030303030303030303030303030303030303030303030303030303030303030303030303030303030306c
:40544000303030303030303030303030303030303030303030303030303030303030303030303030303030303030303030303030303030303030303030303030303030302c
:4054800030303030303030303030303030303030303030303030303030303030303030303030303030303030303030303030303030303030303030303030303030303030ec
:4054c00030303030303030303030303030303030303030303030303030303030303030303030303030303030303030303030303030303030303030303030303030303030ac
:40550000303030303030303030303030303030303030303030303030303030303030303030303030303030303030303030303030303030303030303030303030303030306b
:40554000303030303030303030303030303030303030303030303030303030303030303030303030303030303030303030303030303030303030303030303030303030302b
:4055800030303030303030303030303030303030303030303030303030303030303030303030303030303030303030303030303030303030303030303030303030303030eb
:4055c00030303030303030303030303030303030303030303030303030303030303030303030303030303030303030303030303030303030303030303030303030303030ab
:40560000303030303030303030303030303030303030303030303030303030303030303030303030303030303030303030303030303030303030303030303030303030306a
:40564000303030303030303030303030303030303030303030303030303030303030303030303030303030303030303030303030303030303030303030303030303030302a
:4056800030303030303030303030303030303030303030303030303030303030303030303030303030303030303030303030303030303030303030303030303030303030ea
:4056c00030303030303030303030303030303030303030303030303030303030303030303030303030303030303030303030303030303030303030303030303030303030aa
:405700003030303030303030303030303030303030303030303030303030303030303030303030303030303030303030303030303030303030303030303030303030303069
:405740003030303030303030303030303030303030303030303030303030303030303030303030303030303030303030303030303030303030303030303030303030303029
:4057800030303030303030303030303030303030303030303030303030303030303030303030303030303030303030303030303030303030303030303030303030303030e9
:4057c00030303030303030303030303030303030303030303030303030303030303030303030303030303030303030303030303030303030303030303030303030303030a9
:405800003030303030303030303030303030303030303030303030303030303030303030303030303030303030303030303030303030303030303030303030303030303068
:405840003030303030303030303030303030303030303030303030303030303030303030303030303030303030303030303030303030303030303030303030303030303028
:4058800030303030303030303030303030303030303030303030303030303030303030303030303030303030303030303030303030303030303030303030303030303030e8
:4058c00030303030303030303030303030303030303030303030303030303030303030303030303030303030303030303030303030303030303030303030303030303030a8
:405900003030303030303030303030303030303030303030303030303030303030303030303030303030303030303030303030303030303030303030303030303030303067
:405940003030303030303030303030303030303030303030303030303030303030303030303030303030303030303030303030303030303030303030303030303030303027
:4059800030303030303030303030303030303030303030303030303030303030303030303030303030303030303030303030303030303030303030303030303030303030e7
:4059c00030303030303030303030303030303030303030303030303030303030303030303030303030303030303030303030303030303030303030303030303030303030a7
:405a00003030303030303030303030303030303030303030303030303030303030303030303030303030303030303030303030303030303030303030303030303030303066
:405a40003030303030303030303030303030303030303030303030303030303030303030303030303030303030303030303030303030303030303030303030303030303026
:405a800030303030303030303030303030303030303030303030303030303030303030303030303030303030303030303030303030303030303030303030303030303030e6
:405ac00030303030303030303030303030303030303030303030303030303030303030303030303030303030303030303030303030303030303030303030303030303030a6
:405b00003030303030303030303030303030303030303030303030303030303030303030303030303030303030303030303030303030303030303030303030303030303065
:405b40003030303030303030303030303030303030303030303030303030303030303030303030303030303030303030303030303030303030303030303030303030303025
:405b800030303030303030303030303030303030303030303030303030303030303030303030303030303030303030303030303030303030303030303030303030303030e5
:405bc00030303030303030303030303030303030303030303030303030303030303030303030303030303030303030303030303030303030303030303030303030303030a5
:405c00003030303030303030303030303030303030303030303030303030303030303030303030303030303030303030303030303030303030303030303030303030303064
:405c40003030303030303030303030303030303030303030303030303030303030303030303030303030303030303030303030303030303030303030303030303030303024
:405c800030303030303030303030303030303030303030303030303030303030303030303030303030303030303030303030303030303030303030303030303030303030e4
:405cc00030303030303030303030303030303030303030303030303030303030303030303030303030303030303030303030303030303030303030303030303030303030a4
:405d00003030303030303030303030303030303030303030303030303030303030303030303030303030303030303030303030303030303030303030303030303030303063
:405d40003030303030303030303030303030303030303030303030303030303030303030303030303030303030303030303030303030303030303030303030303030303023
:405d800030303030303030303030303030303030303030303030303030303030303030303030303030303030303030303030303030303030303030303030303030303030e3
:405dc00030303030303030303030303030303030303030303030303030303030303030303030303030303030303030303030303030303030303030303030303030303030a3
:405e00003030303030303030303030303030303030303030303030303030303030303030303030303030303030303030303030303030303030303030303030303030303062
:405e40003030303030303030303030303030303030303030303030303030303030303030303030303030303030303030303030303030303030303030303030303030303022
:405e800030303030303030303030303030303030303030303030303030303030303030303030303030303030303030303030303030303030303030303030303030303030e2
:405ec00030303030303030303030303030303030303030303030303030303030303030303030303030303030303030303030303030303030303030303030303030303030a2
:405f00003030303030303030303030303030303030303030303030303030303030303030303030303030303030303030303030303030303030303030303030303030303061
:405f40003030303030303030303030303030303030303030303030303030303030303030303030303030303030303030303030303030303030303030303030303030303021
:405f800030303030303030303030303030303030303030303030303030303030303030303030303030303030303030303030303030303030303030303030303030303030e1
:405fc00030303030303030303030303030303030303030303030303030303030303030303030303030303030303030303030303030303030303030303030303030303030a1
:406000003030303030303030303030303030303030303030303030303030303030303030303030303030303030303030303030303030303030303030303030303030303060
:406040003030303030303030303030303030303030303030303030303030303030303030303030303030303030303030303030303030303030303030303030303030303020
:4060800030303030303030303030303030303030303030303030303030303030303030303030303030303030303030303030303030303030303030303030303030303030e0
:4060c00030303030303030303030303030303030303030303030303030303030303030303030303030303030303030303030303030303030303030303030303030303030a0
:40610000303030303030303030303030303030303030303030303030303030303030303030303030303030303030303030303030303030303030303030303030303030305f
:40614000303030303030303030303030303030303030303030303030303030303030303030303030303030303030303030303030303030303030303030303030303030301f
:4061800030303030303030303030303030303030303030303030303030303030303030303030303030303030303030303030303030303030303030303030303030303030df
:4061c000303030303030303030303030303030303030303030303030303030303030303030303030303030303030303030303030303030303030303030303030303030309f
:40620000303030303030303030303030303030303030303030303030303030303030303030303030303030303030303030303030303030303030303030303030303030305e
:40624000303030303030303030303030303030303030303030303030303030303030303030303030303030303030303030303030303030303030303030303030303030301e
:4062800030303030303030303030303030303030303030303030303030303030303030303030303030303030303030303030303030303030303030303030303030303030de
:4062c000303030303030303030303030303030303030303030303030303030303030303030303030303030303030303030303030303030303030303030303030303030309e
:40630000303030303030303030303030303030303030303030303030303030303030303030303030303030303030303030303030303030303030303030303030303030305d
:40634000303030303030303030303030303030303030303030303030303030303030303030303030303030303030303030303030303030303030303030303030303030301d
:4063800030303030303030303030303030303030303030303030303030303030303030303030303030303030303030303030303030303030303030303030303030303030dd
:4063c000303030303030303030303030303030303030303030303030303030303030303030303030303030303030303030303030303030303030303030303030303030309d
:40640000303030303030303030303030303030303030303030303030303030303030303030303030303030303030303030303030303030303030303030303030303030305c
:40644000303030303030303030303030303030303030303030303030303030303030303030303030303030303030303030303030303030303030303030303030303030301c
:4064800030303030303030303030303030303030303030303030303030303030303030303030303030303030303030303030303030303030303030303030303030303030dc
:4064c000303030303030303030303030303030303030303030303030303030303030303030303030303030303030303030303030303030303030303030303030303030309c
:40650000303030303030303030303030303030303030303030303030303030303030303030303030303030303030303030303030303030303030303030303030303030305b
:40654000303030303030303030303030303030303030303030303030303030303030303030303030303030303030303030303030303030303030303030303030303030301b
:4065800030303030303030303030303030303030303030303030303030303030303030303030303030303030303030303030303030303030303030303030303030303030db
:4065c000303030303030303030303030303030303030303030303030303030303030303030303030303030303030303030303030303030303030303030303030303030309b
:40660000303030303030303030303030303030303030303030303030303030303030303030303030303030303030303030303030303030303030303030303030303030305a
:40664000303030303030303030303030303030303030303030303030303030303030303030303030303030303030303030303030303030303030303030303030303030301a
:4066800030303030303030303030303030303030303030303030303030303030303030303030303030303030303030303030303030303030303030303030303030303030da
:4066c000303030303030303030303030303030303030303030303030303030303030303030303030303030303030303030303030303030303030303030303030303030309a
:406700003030303030303030303030303030303030303030303030303030303030303030303030303030303030303030303030303030303030303030303030303030303059
:406740003030303030303030303030303030303030303030303030303030303030303030303030303030303030303030303030303030303030303030303030303030303019
:4067800030303030303030303030303030303030303030303030303030303030303030303030303030303030303030303030303030303030303030303030303030303030d9
:4067c0003030303030303030303030303030303030303030303030303030303030303030303030303030303030303030303030303030303030303030303030303030303099
:406800003030303030303030303030303030303030303030303030303030303030303030303030303030303030303030303030303030303030303030303030303030303058
:406840003030303030303030303030303030303030303030303030303030303030303030303030303030303030303030303030303030303030303030303030303030303018
:4068800030303030303030303030303030303030303030303030303030303030303030303030303030303030303030303030303030303030303030303030303030303030d8
:4068c0003030303030303030303030303030303030303030303030303030303030303030303030303030303030303030303030303030303030303030303030303030303098
:406900003030303030303030303030303030303030303030303030303030303030303030303030303030303030303030303030303030303030303030303030303030303057
:406940003030303030303030303030303030303030303030303030303030303030303030303030303030303030303030303030303030303030303030303030303030303017
:4069800030303030303030303030303030303030303030303030303030303030303030303030303030303030303030303030303030303030303030303030303030303030d7
:4069c0003030303030303030303030303030303030303030303030303030303030303030303030303030303030303030303030303030303030303030303030303030303097
:406a00003030303030303030303030303030303030303030303030303030303030303030303030303030303030303030303030303030303030303030303030303030303056
:406a40003030303030303030303030303030303030303030303030303030303030303030303030303030303030303030303030303030303030303030303030303030303016
:406a800030303030303030303030303030303030303030303030303030303030303030303030303030303030303030303030303030303030303030303030303030303030d6
:406ac0003030303030303030303030303030303030303030303030303030303030303030303030303030303030303030303030303030303030303030303030303030303096
:406b00003030303030303030303030303030303030303030303030303030303030303030303030303030303030303030303030303030303030303030303030303030303055
:406b40003030303030303030303030303030303030303030303030303030303030303030303030303030303030303030303030303030303030303030303030303030303015
:406b800030303030303030303030303030303030303030303030303030303030303030303030303030303030303030303030303030303030303030303030303030303030d5
:406bc0003030303030303030303030303030303030303030303030303030303030303030303030303030303030303030303030303030303030303030303030303030303095
:406c00003030303030303030303030303030303030303030303030303030303030303030303030303030303030303030303030303030303030303030303030303030303054
:406c40003030303030303030303030303030303030303030303030303030303030303030303030303030303030303030303030303030303030303030303030303030303014
:406c800030303030303030303030303030303030303030303030303030303030303030303030303030303030303030303030303030303030303030303030303030303030d4
:406cc0003030303030303030303030303030303030303030303030303030303030303030303030303030303030303030303030303030303030303030303030303030303094
:406d00003030303030303030303030303030303030303030303030303030303030303030303030303030303030303030303030303030303030303030303030303030303053
:406d40003030303030303030303030303030303030303030303030303030303030303030303030303030303030303030303030303030303030303030303030303030303013
:406d800030303030303030303030303030303030303030303030303030303030303030303030303030303030303030303030303030303030303030303030303030303030d3
:406dc0003030303030303030303030303030303030303030303030303030303030303030303030303030303030303030303030303030303030303030303030303030303093
:406e00003030303030303030303030303030303030303030303030303030303030303030303030303030303030303030303030303030303030303030303030303030303052
:406e40003030303030303030303030303030303030303030303030303030303030303030303030303030303030303030303030303030303030303030303030303030303012
:406e800030303030303030303030303030303030303030303030303030303030303030303030303030303030303030303030303030303030303030303030303030303030d2
:406ec0003030303030303030303030303030303030303030303030303030303030303030303030303030303030303030303030303030303030303030303030303030303092
:406f00003030303030303030303030303030303030303030303030303030303030303030303030303030303030303030303030303030303030303030303030303030303051
:406f40003030303030303030303030303030303030303030303030303030303030303030303030303030303030303030303030303030303030303030303030303030303011
:406f800030303030303030303030303030303030303030303030303030303030303030303030303030303030303030303030303030303030303030303030303030303030d1
:406fc0003030303030303030303030303030303030303030303030303030303030303030303030303030303030303030303030303030303030303030303030303030303091
:407000003030303030303030303030303030303030303030303030303030303030303030303030303030303030303030303030303030303030303030303030303030303050
:407040003030303030303030303030303030303030303030303030303030303030303030303030303030303030303030303030303030303030303030303030303030303010
:4070800030303030303030303030303030303030303030303030303030303030303030303030303030303030303030303030303030303030303030303030303030303030d0
:4070c0003030303030303030303030303030303030303030303030303030303030303030303030303030303030303030303030303030303030303030303030303030303090
:40710000303030303030303030303030303030303030303030303030303030303030303030303030303030303030303030303030303030303030303030303030303030304f
:40714000303030303030303030303030303030303030303030303030303030303030303030303030303030303030303030303030303030303030303030303030303030300f
:4071800030303030303030303030303030303030303030303030303030303030303030303030303030303030303030303030303030303030303030303030303030303030cf
:4071c000303030303030303030303030303030303030303030303030303030303030303030303030303030303030303030303030303030303030303030303030303030308f
:40720000303030303030303030303030303030303030303030303030303030303030303030303030303030303030303030303030303030303030303030303030303030304e
:40724000303030303030303030303030303030303030303030303030303030303030303030303030303030303030303030303030303030303030303030303030303030300e
:4072800030303030303030303030303030303030303030303030303030303030303030303030303030303030303030303030303030303030303030303030303030303030ce
:4072c000303030303030303030303030303030303030303030303030303030303030303030303030303030303030303030303030303030303030303030303030303030308e
:40730000303030303030303030303030303030303030303030303030303030303030303030303030303030303030303030303030303030303030303030303030303030304d
:40734000303030303030303030303030303030303030303030303030303030303030303030303030303030303030303030303030303030303030303030303030303030300d
:4073800030303030303030303030303030303030303030303030303030303030303030303030303030303030303030303030303030303030303030303030303030303030cd
:4073c000303030303030303030303030303030303030303030303030303030303030303030303030303030303030303030303030303030303030303030303030303030308d
:40740000303030303030303030303030303030303030303030303030303030303030303030303030303030303030303030303030303030303030303030303030303030304c
:40744000303030303030303030303030303030303030303030303030303030303030303030303030303030303030303030303030303030303030303030303030303030300c
:4074800030303030303030303030303030303030303030303030303030303030303030303030303030303030303030303030303030303030303030303030303030303030cc
:4074c000303030303030303030303030303030303030303030303030303030303030303030303030303030303030303030303030303030303030303030303030303030308c
:40750000303030303030303030303030303030303030303030303030303030303030303030303030303030303030303030303030303030303030303030303030303030304b
:40754000303030303030303030303030303030303030303030303030303030303030303030303030303030303030303030303030303030303030303030303030303030300b
:4075800030303030303030303030303030303030303030303030303030303030303030303030303030303030303030303030303030303030303030303030303030303030cb
:4075c000303030303030303030303030303030303030303030303030303030303030303030303030303030303030303030303030303030303030303030303030303030308b
:40760000303030303030303030303030303030303030303030303030303030303030303030303030303030303030303030303030303030303030303030303030303030304a
:40764000303030303030303030303030303030303030303030303030303030303030303030303030303030303030303030303030303030303030303030303030303030300a
:4076800030303030303030303030303030303030303030303030303030303030303030303030303030303030303030303030303030303030303030303030303030303030ca
:4076c000303030303030303030303030303030303030303030303030303030303030303030303030303030303030303030303030303030303030303030303030303030308a
:407700003030303030303030303030303030303030303030303030303030303030303030303030303030303030303030303030303030303030303030303030303030303049
:407740003030303030303030303030303030303030303030303030303030303030303030303030303030303030303030303030303030303030303030303030303030303009
:4077800030303030303030303030303030303030303030303030303030303030303030303030303030303030303030303030303030303030303030303030303030303030c9
:4077c0003030303030303030303030303030303030303030303030303030303030303030303030303030303030303030303030303030303030303030303030303030303089
:407800003030303030303030303030303030303030303030303030303030303030303030303030303030303030303030303030303030303030303030303030303030303048
:407840003030303030303030303030303030303030303030303030303030303030303030303030303030303030303030303030303030303030303030303030303030303008
:4078800030303030303030303030303030303030303030303030303030303030303030303030303030303030303030303030303030303030303030303030303030303030c8
:4078c0003030303030303030303030303030303030303030303030303030303030303030303030303030303030303030303030303030303030303030303030303030303088
:407900003030303030303030303030303030303030303030303030303030303030303030303030303030303030303030303030303030303030303030303030303030303047
:407940003030303030303030303030303030303030303030303030303030303030303030303030303030303030303030303030303030303030303030303030303030303007
:4079800030303030303030303030303030303030303030303030303030303030303030303030303030303030303030303030303030303030303030303030303030303030c7
:4079c0003030303030303030303030303030303030303030303030303030303030303030303030303030303030303030303030303030303030303030303030303030303087
:407a00003030303030303030303030303030303030303030303030303030303030303030303030303030303030303030303030303030303030303030303030303030303046
:407a40003030303030303030303030303030303030303030303030303030303030303030303030303030303030303030303030303030303030303030303030303030303006
:407a800030303030303030303030303030303030303030303030303030303030303030303030303030303030303030303030303030303030303030303030303030303030c6
:407ac0003030303030303030303030303030303030303030303030303030303030303030303030303030303030303030303030303030303030303030303030303030303086
:407b00003030303030303030303030303030303030303030303030303030303030303030303030303030303030303030303030303030303030303030303030303030303045
:407b40003030303030303030303030303030303030303030303030303030303030303030303030303030303030303030303030303030303030303030303030303030303005
:407b800030303030303030303030303030303030303030303030303030303030303030303030303030303030303030303030303030303030303030303030303030303030c5
:407bc0003030303030303030303030303030303030303030303030303030303030303030303030303030303030303030303030303030303030303030303030303030303085
:407c00003030303030303030303030303030303030303030303030303030303030303030303030303030303030303030303030303030303030303030303030303030303044
:407c40003030303030303030303030303030303030303030303030303030303030303030303030303030303030303030303030303030303030303030303030303030303004
:407c800030303030303030303030303030303030303030303030303030303030303030303030303030303030303030303030303030303030303030303030303030303030c4
:407cc0003030303030303030303030303030303030303030303030303030303030303030303030303030303030303030303030303030303030303030303030303030303084
:407d00003030303030303030303030303030303030303030303030303030303030303030303030303030303030303030303030303030303030303030303030303030303043
:407d40003030303030303030303030303030303030303030303030303030303030303030303030303030303030303030303030303030303030303030303030303030303003
:407d800030303030303030303030303030303030303030303030303030303030303030303030303030303030303030303030303030303030303030303030303030303030c3
:407dc0003030303030303030303030303030303030303030303030303030303030303030303030303030303030303030303030303030303030303030303030303030303083
:407e00003030303030303030303030303030303030303030303030303030303030303030303030303030303030303030303030303030303030303030303030303030303042
:407e40003030303030303030303030303030303030303030303030303030303030303030303030303030303030303030303030303030303030303030303030303030303002
:407e800030303030303030303030303030303030303030303030303030303030303030303030303030303030303030303030303030303030303030303030303030303030c2
:407ec0003030303030303030303030303030303030303030303030303030303030303030303030303030303030303030303030303030303030303030303030303030303082
:407f00003030303030303030303030303030303030303030303030303030303030303030303030303030303030303030303030303030303030303030303030303030303041
:407f40003030303030303030303030303030303030303030303030303030303030303030303030303030303030303030303030303030303030303030303030303030303001
:407f80000000303030303030303030303030303030303030303030303030303030303030303030303030303030303030303030303030303030303030303030303030303021
:407fc0006276000000000000000000000000000000000000303030303030303030303030303030303030303030303030303030303030303030303030303030303030303069
:020000040010ea
:40000000ffffffffffffffffffffffffffffffffffffffffffffffffffffffffffffffffffffffffffffffffffffffffffffffffffffffffffffffffffffffffffffffff00
:40004000ffffffffffffffffffffffffffffffffffffffffffffffffffffffffffffffffffffffffffffffffffffffffffffffffffffffffffffffffffffffffffffff0fb0
:020000040020da
:02000000596540
:00000001ff
