<?xml version="1.0" encoding="iso-8859-1"?>
<!DOCTYPE svg PUBLIC "-//W3C//DTD SVG 20000303 Stylable//EN" "http://www.w3.org/TR/2000/03/WD-SVG-20000303/DTD/ svg-20000303-stylable.dtd">

<svg xmlns:xmlns="http://www.w3.org/2000/svg-20000303-stylable" viewBox=" -100 -100 580 640" preserveAspectRatio="xMinYMin meet" zoomAndPan="magnify">
  
  



  
  <desc>
    
     Digital InterConnect View 
  
  </desc>
  
  


  

  
  <style type="text/css">
    
  
  </style>
  
  


	

  
  <defs>
    
    	

	 
    
    <symbol id="magnifyer" overflow="visible" style="fill:white;stroke:darkcyan;stroke-width:2;fill-opacity:0.35;stroke-opacity:1.0;" preserveAspectRatio="xMidYMid meet">
      
      
		
      
      <circle x="0" y="0" r="8" cx="0" cy="0" />
      
      
		
      
      <line x1="-4" y1="0" x2="4" y2="0" style="stroke:darkcyan;stroke-width:2;" />
      
      
	  
    
    </symbol>
    
    
	  
    
    <symbol id="magnifyerZoomIn" overflow="visible" preserveAspectRatio="xMidYMid meet">
      
      
		
      
      <use id="zoomIn" xlink:href="#magnifyer" />
      
      
		
      
      <line x1="0" y1="-4" x2="0" y2="4" style="stroke:darkcyan;stroke-width:2;fill-opacity:1.0;stroke-opacity:1.0;" />
      
      
	  
    
    </symbol>
    
    

	
    
    <linearGradient id="MyGradientDarkYellow2" gradientTransform="rotate(90)">
      
       
		
      
      <stop offset="0%" style="stop-color:lightgrey" />
      
       
		
      
      <stop offset="50%" style="stop-color:navajowhite" />
      
       
		
      
      <stop offset="100%" style="stop-color:lightgrey" />
      
       
	
    
    </linearGradient>
    
     

	
    
    <linearGradient id="MyGradientDarkYellow3" gradientTransform="rotate(90)">
      
       
		
      
      <stop offset="0%" style="stop-color:lightgrey" />
      
       
		
      
      <stop offset="10%" style="stop-color:navajowhite" />
      
       
		
      
      <stop offset="20%" style="stop-color:lightgrey" />
      
       
		
      
      <stop offset="30%" style="stop-color:navajowhite" />
      
       
		
      
      <stop offset="40%" style="stop-color:lightgrey" />
      
       
		
      
      <stop offset="50%" style="stop-color:navajowhite" />
      
       
		
      
      <stop offset="60%" style="stop-color:lightgrey" />
      
       
		
      
      <stop offset="70%" style="stop-color:navajowhite" />
      
       
		
      
      <stop offset="80%" style="stop-color:lightgrey" />
      
       
		
      
      <stop offset="90%" style="stop-color:navajowhite" />
      
       
		
      
      <stop offset="100%" style="stop-color:lightgrey" />
      
       
	
    
    </linearGradient>
    
     


	
    
    <linearGradient id="MyGradientDarkYellow" gradientTransform="rotate(90)">
      
       
		
      
      <stop offset="0%" style="stop-color:lightgrey" />
      
       
		
      
      <stop offset="100%" style="stop-color:goldenrod" />
      
       
		//
      
      <stop offset="100%" style="stop-color:black" />
      
       
	
    
    </linearGradient>
    
     

	
    
    <linearGradient id="MyGradientDarkCyan" gradientTransform="rotate(90)">
      
       
		
      
      <stop offset="0%" style="stop-color:lightgrey" />
      
       
		
      
      <stop offset="100%" style="stop-color:darkcyan" />
      
       
		//
      
      <stop offset="100%" style="stop-color:black" />
      
       
	
    
    </linearGradient>
    
     

	
    
    <linearGradient id="MyGradientMagenta" gradientTransform="rotate(90)">
      
       
		
      
      <stop offset="0%" style="stop-color:lightgrey" />
      
       
		
      
      <stop offset="100%" style="stop-color:magenta" />
      
       
		//
      
      <stop offset="100%" style="stop-color:black" />
      
       
	
    
    </linearGradient>
    
     

	
    
    <linearGradient id="MyGradientCyan" gradientTransform="rotate(90)">
      
       
		
      
      <stop offset="0%" style="stop-color:lightgrey" />
      
       
		
      
      <stop offset="100%" style="stop-color:cyan" />
      
       
		//
      
      <stop offset="100%" style="stop-color:black" />
      
       
	
    
    </linearGradient>
    
     
									
	
    
    <linearGradient id="MyGradientBlue" gradientTransform="rotate(90)">
      
       
		
      
      <stop offset="0%" style="stop-color:lightgrey" />
      
       
		
      
      <stop offset="100%" style="stop-color:dodgerblue" />
      
       
		//
      
      <stop offset="100%" style="stop-color:black" />
      
       
	
    
    </linearGradient>
    
     


	
    
    <linearGradient id="MyGradientDarkGreen" gradientTransform="rotate(90)">
      
       
		
      
      <stop offset="0%" style="stop-color:lightgrey" />
      
       
		
      
      <stop offset="100%" style="stop-color:forestgreen" />
      
       
		//
      
      <stop offset="100%" style="stop-color:black" />
      
       
	
    
    </linearGradient>
    
     


	
    
    <linearGradient id="MyGradientNoColor" gradientTransform="rotate(90)">
      
       
		
      
      <stop offset="0%" style="stop-color:white" />
      
       
		
      
      <stop offset="100%" style="stop-color:lightgrey" />
      
       
		//
      
      <stop offset="100%" style="stop-color:black" />
      
       
	
    
    </linearGradient>
    
     


	
    
    <linearGradient id="MyGradientRed" gradientTransform="rotate(90)">
      
       
		
      
      <stop offset="0%" style="stop-color:lightgrey" />
      
       
		
      
      <stop offset="100%" style="stop-color:indianred" />
      
       
	
    
    </linearGradient>
    
     

	
    
    <linearGradient id="MyGradientDarkMagenta" gradientTransform="rotate(90)">
      
       
		
      
      <stop offset="0%" style="stop-color:lightgrey" />
      
       
		
      
      <stop offset="100%" style="stop-color:mediumorchid" />
      
       
		//
      
      <stop offset="100%" style="stop-color:black" />
      
       
	
    
    </linearGradient>
    
     

	
    
    <linearGradient id="MyGradientGreen" gradientTransform="rotate(90)">
      
       
		
      
      <stop offset="0%" style="stop-color:lightgrey" />
      
       
		
      
      <stop offset="100%" style="stop-color:lightgreen" />
      
       
		//
      
      <stop offset="100%" style="stop-color:black" />
      
       
	
    
    </linearGradient>
    
     

	
    
    <linearGradient id="MyGradientYellow" gradientTransform="rotate(90)">
      
       
		
      
      <stop offset="0%" style="stop-color:lightgrey" />
      
       
		
      
      <stop offset="100%" style="stop-color:lemonchiffon" />
      
       
		//
      
      <stop offset="100%" style="stop-color:black" />
      
       
	
    
    </linearGradient>
    
     

	
    
    <linearGradient id="MyGradientDarkRed" gradientTransform="rotate(90)">
      
       
		
      
      <stop offset="0%" style="stop-color:lightgrey" />
      
       
		
      
      <stop offset="100%" style="stop-color:firebrick" />
      
       
		//
      
      <stop offset="100%" style="stop-color:black" />
      
       
	
    
    </linearGradient>
    
     

	
    
    <marker id="mCircle" markerWidth="10" markerHeight="10" refX="4" refY="4" preserveAspectRatio="xMidYMid meet">
      
      
		
      
      <circle cx="4" cy="4" r="3" style="fill:black stroke:black" />
      
      
	
    
    </marker>
    
    


	
    
    <g id="Symbol_AND">
      
      
		
      
      <g transform="scale(.35)">
        
        
			
        
        <path stroke-width="1.5" stroke-linecap="round" stroke-linejoin="round" d="M29.641,9l-1.441,1.8     L26.4,12.48l-2.041,1.439l-2.399,1.32l-2.761,1.08l-2.879,0.96L13.2,17.88H6.12l1.44-2.16l1.08-2.28l0.6-2.16L9.48,9L9.24,6.72     l-0.6-2.28L7.56,2.16L6.12,0h7.08l3.12,0.6l2.879,0.96l2.761,1.08l2.399,1.32l2.16,1.56l1.68,1.68L29.641,9" />
        
        
	
			
        
        <path stroke-width="1.5" stroke-linecap="round" stroke-linejoin="round" d="M20.641,17.88H6.12V0     h14.521l1.92,0.24l1.92,0.6l1.68,1.08L27.6,3.36l1.08,1.68L29.4,6.96L29.641,9l-0.24,2.041l-0.721,1.799L27.6,14.52l-1.439,1.44     l-1.68,1.08l-1.92,0.6L20.641,17.88" />
        
        
			
        
        <path stroke-width="1.5" stroke-linecap="round" stroke-linejoin="round" d="M29.50,9 l 5 0" />
        
        
		
      
      </g>
      
      
	
    
    </g>
    
    
	
	
    
    <g id="Symbol_OR">
      
      
		
      
      <g transform="scale(.35)">
        
        
			
        
        <path stroke-width="1.5" stroke-linecap="round" stroke-linejoin="round" d="M35.76,9H17.88" />
        
        
			
        
        <path stroke-width="1.5" stroke-linecap="round" stroke-linejoin="round" d="M29.641,9l-1.441,1.8     L26.4,12.48l-2.041,1.439l-2.399,1.32l-2.761,1.08l-2.879,0.96L13.2,17.88H6.12l1.44-2.16l1.08-2.28l0.6-2.16L9.48,9L9.24,6.72     l-0.6-2.28L7.56,2.16L6.12,0h7.08l3.12,0.6l2.879,0.96l2.761,1.08l2.399,1.32l2.16,1.56l1.68,1.68L29.641,9" />
        
        
		
      
      </g>
      
      
	
    
    </g>
    
    

	
    
    <g id="Symbol_XOR">
      
      
		
      
      <g transform="scale(.35)">
        
        
			
        
        <path stroke-width="1.5" stroke-linecap="round" stroke-linejoin="round" d="M35.76,9H17.88" />
        
        
			
        
        <path d="M29.641,9l-1.441,1.8L26.4,12.48l-2.041,1.439l-2.399,1.32l-2.761,1.08l-2.879,0.96L13.2,17.88H6.12     l1.44-2.16l1.08-2.28l0.6-2.16L9.48,9L9.24,6.72l-0.6-2.28L7.56,2.16L6.12,0h7.08l3.12,0.6l2.879,0.96l2.761,1.08l2.399,1.32     l2.16,1.56l1.68,1.68L29.641,9" />
        
        
			
        
        <path stroke-width="1.5" stroke-linecap="round" stroke-linejoin="round" d="M29.641,9l-1.441,1.8     L26.4,12.48l-2.041,1.439l-2.399,1.32l-2.761,1.08l-2.879,0.96L13.2,17.88H6.12l1.44-2.16l1.08-2.28l0.6-2.16L9.48,9L9.24,6.72     l-0.6-2.28L7.56,2.16L6.12,0h7.08l3.12,0.6l2.879,0.96l2.761,1.08l2.399,1.32l2.16,1.56l1.68,1.68L29.641,9" />
        
        
			
        
        <path stroke-width="1.5" stroke-linecap="round" stroke-linejoin="round" d="M3.84,17.88l1.44-2.16     l0.96-2.28l0.6-2.16L7.08,9L6.84,6.72l-0.6-2.28L5.28,2.16L3.84,0" />
        
        
		
      
      </g>
      
      
	
    
    </g>
    
    

	
    
    <g id="Symbol_NOT">
      
      
		
      
      <g transform="scale(.52)">
        
        
			
        
        <path stroke-width="1.15" stroke-linejoin="round" d="M13.439,6.72l0.24,0.601l0.48,0.359h0.6    l0.6-0.359L15.48,6.72l-0.121-0.6l-0.6-0.36h-0.6l-0.48,0.36L13.439,6.72 M0,0l13.439,6.72L0,13.439V0" />
        
        
			
        
        <path stroke-width="1.15" stroke-linecap="round" stroke-linejoin="round" d="M14.52,6.72h5.641" />
        
        
		
      
      </g>
      
      
	
    
    </g>
    
    	

	
    
    <g id="Symbol_NAND">
      
      
		
      
      <g transform="scale(.35)">
        
        
			
        
        <path stroke-width="1.5" stroke-linecap="round" stroke-linejoin="round" d="M35.76,9H17.88" />
        
        
			
        
        <path stroke-width="1.5" stroke-linecap="round" stroke-linejoin="round" d="M29.641,9l-1.441,1.8     L26.4,12.48l-2.041,1.439l-2.399,1.32l-2.761,1.08l-2.879,0.96L13.2,17.88H6.12l1.44-2.16l1.08-2.28l0.6-2.16L9.48,9L9.24,6.72     l-0.6-2.28L7.56,2.16L6.12,0h7.08l3.12,0.6l2.879,0.96l2.761,1.08l2.399,1.32l2.16,1.56l1.68,1.68L29.641,9" />
        
        
			
        
        <path stroke-width="1.5" stroke-linecap="round" stroke-linejoin="round" d="M32.16,9l-0.12-0.72     L31.561,7.8L30.84,7.68l-0.6,0.12l-0.6,0.48L29.52,9l0.121,0.72l0.6,0.479l0.6,0.12l0.721-0.12L32.04,9.72L32.16,9" />
        
        
			
        
        <path stroke-width="1.5" stroke-linecap="round" stroke-linejoin="round" d="M20.641,17.88H6.12V0     h14.521l1.92,0.24l1.92,0.6l1.68,1.08L27.6,3.36l1.08,1.68L29.4,6.96L29.641,9l-0.24,2.041l-0.721,1.799L27.6,14.52l-1.439,1.44     l-1.68,1.08l-1.92,0.6L20.641,17.88" />
        
        
		
      
      </g>
      
      
	
    
    </g>
    
    

	
    
    <g id="Symbol_NOR">
      
      
		
      
      <g transform="scale(.35)">
        
        
			
        
        <path stroke-width="1.5" stroke-linecap="round" stroke-linejoin="round" d="M35.76,9H17.88" />
        
        
			
        
        <path stroke-width="1.5" stroke-linecap="round" stroke-linejoin="round" d="M29.641,9l-1.441,1.8     L26.4,12.48l-2.041,1.439l-2.399,1.32l-2.761,1.08l-2.879,0.96L13.2,17.88H6.12l1.44-2.16l1.08-2.28l0.6-2.16L9.48,9L9.24,6.72     l-0.6-2.28L7.56,2.16L6.12,0h7.08l3.12,0.6l2.879,0.96l2.761,1.08l2.399,1.32l2.16,1.56l1.68,1.68L29.641,9" />
        
        
			
        
        <path stroke-width="1.5" stroke-linecap="round" stroke-linejoin="round" d="M32.16,9l-0.12-0.72     L31.561,7.8L30.84,7.68l-0.6,0.12l-0.6,0.48L29.52,9l0.121,0.72l0.6,0.479l0.6,0.12l0.721-0.12L32.04,9.72L32.16,9" />
        
        
		
      
      </g>
      
      
	
    
    </g>
    
    

	
    
    <g id="Symbol_XNOR">
      
      
		
      
      <g transform="scale(.35)">
        
        
			
        
        <path stroke-width="1.5" stroke-linecap="round" stroke-linejoin="round" d="M35.76,9H17.88" />
        
        
			
        
        <path d="M29.641,9l-1.441,1.8L26.4,12.48l-2.041,1.439l-2.399,1.32l-2.761,1.08l-2.879,0.96L13.2,17.88H6.12     l1.44-2.16l1.08-2.28l0.6-2.16L9.48,9L9.24,6.72l-0.6-2.28L7.56,2.16L6.12,0h7.08l3.12,0.6l2.879,0.96l2.761,1.08l2.399,1.32     l2.16,1.56l1.68,1.68L29.641,9" />
        
        
			
        
        <path stroke-width="1.5" stroke-linecap="round" stroke-linejoin="round" d="M29.641,9l-1.441,1.8     L26.4,12.48l-2.041,1.439l-2.399,1.32l-2.761,1.08l-2.879,0.96L13.2,17.88H6.12l1.44-2.16l1.08-2.28l0.6-2.16L9.48,9L9.24,6.72     l-0.6-2.28L7.56,2.16L6.12,0h7.08l3.12,0.6l2.879,0.96l2.761,1.08l2.399,1.32l2.16,1.56l1.68,1.68L29.641,9" />
        
        
			
        
        <path stroke-width="1.5" stroke-linecap="round" stroke-linejoin="round" d="M3.84,17.88l1.44-2.16     l0.96-2.28l0.6-2.16L7.08,9L6.84,6.72l-0.6-2.28L5.28,2.16L3.84,0" />
        
        
			
        
        <path stroke-width="1.5" stroke-linecap="round" stroke-linejoin="round" d="M32.16,9l-0.12-0.72     L31.561,7.8L30.84,7.68l-0.6,0.12l-0.6,0.48L29.52,9l0.121,0.72l0.6,0.479l0.6,0.12l0.721-0.12L32.04,9.72L32.16,9" />
        
        
		
      
      </g>
      
      
	
    
    </g>
    
    

	
    
    <g id="Symbol_FALSE">
      
      
		
      
      <g transform="scale(.40)">
        
        
			
        
        <path stroke-width="1.5" stroke-linecap="round" stroke-linejoin="round" d="M49.81,9.25     L49.57,7.21l-0.72-1.92l-1.08-1.68l-1.44-1.44l-1.68-1.08l-1.921-0.6L40.69,0.25l-1.92,0.24l-1.92,0.6l-1.68,1.08l-1.441,1.44     L32.65,5.29l-0.72,1.92l-0.24,2.04l0.24,2.04l0.72,1.92l1.079,1.681l1.441,1.439l1.68,1.08l1.92,0.6l1.92,0.24l2.039-0.24     l1.921-0.6l1.68-1.08l1.44-1.439l1.08-1.681l0.72-1.92L49.81,9.25" />
        
        
		
      
      </g>
      
      
	
    
    </g>
    
    	

	
    
    <g id="Symbol_TRUE">
      
      
		
      
      <g transform="scale(.40)">
        
        
				
        
        <path stroke-width="1.5" stroke-linecap="round" stroke-linejoin="round" d="M4.81,0.25v18" />
        
        
				
        
        <path stroke-width="1.5" stroke-linecap="round" stroke-linejoin="round" d="M0.25,18.25h9.12" />
        
        
				
        
        <path stroke-width="1.5" stroke-linecap="round" stroke-linejoin="round" d="M4.81,0.25L0.25,4.69" />
        
        
		
      
      </g>
      
      
	
    
    </g>
    
    

	
    
    <g id="Symbol_GROUND">
      
      
		
      
      <g transform="scale(.40)">
        
        
			
        
        <path stroke-width="1.5" stroke-linecap="square" stroke-linejoin="round" d="M6.72,22.44V4.8" />
        
        
			
        
        <path d="M3.96,5.52L6.72,0l2.76,5.52H3.96" />
        
        
			
        
        <text transform="matrix(1 0 0 1 0 30.6001)" startOffset="0">
          
          
          <tspan x="0" y="0" font-family="'Courier-Bold'" font-size="8">
            
            VDD
          
          </tspan>
          
        
        </text>
        
        
		
      
      </g>
      
      
	
    
    </g>
    
    

	
    

	
	
    

  
  </defs>
  
  



  


  


  
  <g id="background" style="pointer-events: none;">
    
    

	
    
    <rect id="anchor_pt0" x="0" y="0" width="100%" height="100%" style="fill:  none" />
    
    
	
    
    <rect id="anchor_pt2" x="-3760" y="-3856" width="9400" height="9640" onkeypress="key_press(evt)" style="fill:  none" />
    
    
	
    
    <rect id="anchor_pt" x="0" y="0" width="1880" height="1928" onkeypress="key_press(evt)" style="fill:  none" />
    
    


    





  
  </g>
  
  
  <path id="BIG_PINOUT" d="M 100 100 l 90 0 a10,10 30 0,0 20,0 l 90 0 l 0 290 l -200 0 l 0 -290" fill="white" stroke="black" stroke-width="2" />
  
  
  <text x="200" y="225" style="font-family:Helvetica; font-weight:bold; font-size:12; fill:#000000;  text-anchor: middle" startOffset="0">
    
    CY8C27443
  
  </text>
  
  
  <text x="200" y="245" style="font-family:Helvetica; font-weight:bold; font-size:12; fill:#000000;  text-anchor: middle" startOffset="0">
    
    PDIP
  
  </text>
  
  
  <text x="200" y="265" style="font-family:Helvetica; font-weight:bold; font-size:12; fill:#000000;  text-anchor: middle" startOffset="0">
    
    SSOP
  
  </text>
  
  
  <text x="200" y="285" style="font-family:Helvetica; font-weight:bold; font-size:12; fill:#000000;  text-anchor: middle" startOffset="0">
    
    SOIC
  
  </text>
  
  
  <path d="M 100 100 m 0 10 l -20 0 l 0 10 l 20 0 " id="PO_1" style="fill:lightskyblue;stroke-width:2;stroke:black;" />
  
  
  <text x="110" y="120" style="font-family:Helvetica; font-size:10; fill:#000000" startOffset="0">
    
    1 P0[7]
  
  </text>
  
  
  <text x="70" y="120" style="font-family:Helvetica; font-size:10; fill:#000000" text-anchor="end" id="PINDIPLAYNAME_Port_0_7" startOffset="0">
    
    Port_0_7
  
  </text>
  
  
  <path d="M 100 100 m 0 30 l -20 0 l 0 10 l 20 0 " id="PO_2" style="fill:lightskyblue;stroke-width:2;stroke:black;" />
  
  
  <path d="M 100 100 m 0 50 l -20 0 l 0 10 l 20 0 " id="PO_3" style="fill:lightskyblue;stroke-width:2;stroke:black;" />
  
  
  <path d="M 100 100 m 0 70 l -20 0 l 0 10 l 20 0 " id="PO_4" style="fill:lightskyblue;stroke-width:2;stroke:black;" />
  
  
  <path d="M 100 100 m 0 90 l -20 0 l 0 10 l 20 0 " id="PO_5" style="fill:lightskyblue;stroke-width:2;stroke:black;" />
  
  
  <path d="M 100 100 m 0 110 l -20 0 l 0 10 l 20 0 " id="PO_6" style="fill:lightskyblue;stroke-width:2;stroke:black;" />
  
  
  <path d="M 100 100 m 0 130 l -20 0 l 0 10 l 20 0 " id="PO_7" style="fill:lightskyblue;stroke-width:2;stroke:black;" />
  
  
  <path d="M 100 100 m 0 150 l -20 0 l 0 10 l 20 0 " id="PO_8" style="fill:lightskyblue;stroke-width:2;stroke:black;" />
  
  
  <path d="M 100 100 m 0 170 l -20 0 l 0 10 l 20 0 " id="PO_9" style="fill:white;stroke-width:2;stroke:black;" />
  
  
  <path d="M 100 100 m 0 190 l -20 0 l 0 10 l 20 0 " id="PO_10" style="fill:lightskyblue;stroke-width:2;stroke:black;" />
  
  
  <path d="M 100 100 m 0 210 l -20 0 l 0 10 l 20 0 " id="PO_11" style="fill:lightskyblue;stroke-width:2;stroke:black;" />
  
  
  <path d="M 100 100 m 0 230 l -20 0 l 0 10 l 20 0 " id="PO_12" style="fill:lightskyblue;stroke-width:2;stroke:black;" />
  
  
  <path d="M 100 100 m 0 250 l -20 0 l 0 10 l 20 0 " id="PO_13" style="fill:lightskyblue;stroke-width:2;stroke:black;" />
  
  
  <path d="M 100 100 m 0 270 l -20 0 l 0 10 l 20 0 " id="PO_14" style="fill:white;stroke-width:2;stroke:black;" />
  
  
  <text x="110" y="140" style="font-family:Helvetica; font-size:10; fill:#000000" startOffset="0">
    
    2 P0[5]
  
  </text>
  
  
  <text x="70" y="140" style="font-family:Helvetica; font-size:10; fill:#000000" text-anchor="end" id="PINDIPLAYNAME_Port_0_5" startOffset="0">
    
    Port_0_5
  
  </text>
  
  
  <text x="110" y="160" style="font-family:Helvetica; font-size:10; fill:#000000" startOffset="0">
    
    3 P0[3]
  
  </text>
  
  
  <text x="70" y="160" style="font-family:Helvetica; font-size:10; fill:#000000" text-anchor="end" id="PINDIPLAYNAME_Port_0_3" startOffset="0">
    
    Port_0_3
  
  </text>
  
  
  <text x="110" y="180" style="font-family:Helvetica; font-size:10; fill:#000000" startOffset="0">
    
    4 P0[1]
  
  </text>
  
  
  <text x="70" y="180" style="font-family:Helvetica; font-size:10; fill:#000000" text-anchor="end" id="PINDIPLAYNAME_Port_0_1" startOffset="0">
    
    Port_0_1
  
  </text>
  
  
  <text x="110" y="200" style="font-family:Helvetica; font-size:10; fill:#000000" startOffset="0">
    
    5 P2[7]
  
  </text>
  
  
  <text x="70" y="200" style="font-family:Helvetica; font-size:10; fill:#000000" text-anchor="end" id="PINDIPLAYNAME_Port_2_7" startOffset="0">
    
    Port_2_7
  
  </text>
  
  
  <text x="110" y="220" style="font-family:Helvetica; font-size:10; fill:#000000" startOffset="0">
    
    6 P2[5]
  
  </text>
  
  
  <text x="70" y="220" style="font-family:Helvetica; font-size:10; fill:#000000" text-anchor="end" id="PINDIPLAYNAME_Port_2_5" startOffset="0">
    
    Port_2_5
  
  </text>
  
  
  <text x="110" y="240" style="font-family:Helvetica; font-size:10; fill:#000000" startOffset="0">
    
    7 P2[3]
  
  </text>
  
  
  <text x="70" y="240" style="font-family:Helvetica; font-size:10; fill:#000000" text-anchor="end" id="PINDIPLAYNAME_Port_2_3" startOffset="0">
    
    Port_2_3
  
  </text>
  
  
  <text x="110" y="260" style="font-family:Helvetica; font-size:10; fill:#000000" startOffset="0">
    
    8 P2[1]
  
  </text>
  
  
  <text x="70" y="260" style="font-family:Helvetica; font-size:10; fill:#000000" text-anchor="end" id="PINDIPLAYNAME_Port_2_1" startOffset="0">
    
    Port_2_1
  
  </text>
  
  
  <text x="110" y="280" style="font-family:Helvetica; font-size:10; fill:#000000" startOffset="0">
    
    9 SMP
  
  </text>
  
  
  <text x="70" y="280" style="font-family:Helvetica; font-size:10; fill:#000000" text-anchor="end" id="PINDIPLAYNAME_" startOffset="0">
    
    
  
  </text>
  
  
  <text x="110" y="300" style="font-family:Helvetica; font-size:10; fill:#000000" startOffset="0">
    
    10 P1[7]
  
  </text>
  
  
  <text x="70" y="300" style="font-family:Helvetica; font-size:10; fill:#000000" text-anchor="end" id="PINDIPLAYNAME_Port_1_7" startOffset="0">
    
    Port_1_7
  
  </text>
  
  
  <text x="110" y="320" style="font-family:Helvetica; font-size:10; fill:#000000" startOffset="0">
    
    11 P1[5]
  
  </text>
  
  
  
  
  <text x="110" y="340" style="font-family:Helvetica; font-size:10; fill:#000000" startOffset="0">
    
    12 P1[3]
  
  </text>
  
  
  
  
  <text x="110" y="360" style="font-family:Helvetica; font-size:10; fill:#000000" startOffset="0">
    
    13 P1[1]
  
  </text>
  
  
  
  
  <text x="110" y="380" style="font-family:Helvetica; font-size:10; fill:#000000" startOffset="0">
    
    14 VSS
  
  </text>
  
  
  <text x="70" y="380" style="font-family:Helvetica; font-size:10; fill:#000000" text-anchor="end" id="PINDIPLAYNAME_" startOffset="0">
    
    
  
  </text>
  
  
  <path d="M 100 100 m 200 10 l 20 0 l 0 10 l -20 0 " id="PO_28" style="fill:white;stroke-width:2;stroke:black;" />
  
  
  <path d="M 100 100 m 200 30 l 20 0 l 0 10 l -20 0 " id="PO_27" style="fill:lightskyblue;stroke-width:2;stroke:black;" />
  
  
  <path d="M 100 100 m 200 50 l 20 0 l 0 10 l -20 0 " id="PO_26" style="fill:lightskyblue;stroke-width:2;stroke:black;" />
  
  
  <path d="M 100 100 m 200 70 l 20 0 l 0 10 l -20 0 " id="PO_25" style="fill:lightskyblue;stroke-width:2;stroke:black;" />
  
  
  <path d="M 100 100 m 200 90 l 20 0 l 0 10 l -20 0 " id="PO_24" style="fill:lightskyblue;stroke-width:2;stroke:black;" />
  
  
  <path d="M 100 100 m 200 110 l 20 0 l 0 10 l -20 0 " id="PO_23" style="fill:lightskyblue;stroke-width:2;stroke:black;" />
  
  
  <path d="M 100 100 m 200 130 l 20 0 l 0 10 l -20 0 " id="PO_22" style="fill:lightskyblue;stroke-width:2;stroke:black;" />
  
  
  <path d="M 100 100 m 200 150 l 20 0 l 0 10 l -20 0 " id="PO_21" style="fill:lightskyblue;stroke-width:2;stroke:black;" />
  
  
  <path d="M 100 100 m 200 170 l 20 0 l 0 10 l -20 0 " id="PO_20" style="fill:lightskyblue;stroke-width:2;stroke:black;" />
  
  
  <path d="M 100 100 m 200 190 l 20 0 l 0 10 l -20 0 " id="PO_19" style="fill:white;stroke-width:2;stroke:black;" />
  
  
  <path d="M 100 100 m 200 210 l 20 0 l 0 10 l -20 0 " id="PO_18" style="fill:lightskyblue;stroke-width:2;stroke:black;" />
  
  
  <path d="M 100 100 m 200 230 l 20 0 l 0 10 l -20 0 " id="PO_17" style="fill:lightskyblue;stroke-width:2;stroke:black;" />
  
  
  <path d="M 100 100 m 200 250 l 20 0 l 0 10 l -20 0 " id="PO_16" style="fill:lightskyblue;stroke-width:2;stroke:black;" />
  
  
  <path d="M 100 100 m 200 270 l 20 0 l 0 10 l -20 0 " id="PO_15" style="fill:lightskyblue;stroke-width:2;stroke:black;" />
  
  
  <text x="250" y="380" style="font-family:Helvetica; font-size:10; fill:#000000" startOffset="0">
    
    15 P1[0]
  
  </text>
  
  
  
  
  <text x="250" y="360" style="font-family:Helvetica; font-size:10; fill:#000000" startOffset="0">
    
    16 P1[2]
  
  </text>
  
  
  
  
  <text x="250" y="340" style="font-family:Helvetica; font-size:10; fill:#000000" startOffset="0">
    
    17 P1[4]
  
  </text>
  
  
  
  
  <text x="250" y="320" style="font-family:Helvetica; font-size:10; fill:#000000" startOffset="0">
    
    18 P1[6]
  
  </text>
  
  
  
  
  <text x="250" y="300" style="font-family:Helvetica; font-size:10; fill:#000000" startOffset="0">
    
    19 XRES
  
  </text>
  
  
  <text x="324" y="300" style="font-family:Helvetica; font-size:10; fill:#000000" text-anchor="start" id="PINDIPLAYNAME_" startOffset="0">
    
    
  
  </text>
  
  
  <text x="250" y="280" style="font-family:Helvetica; font-size:10; fill:#000000" startOffset="0">
    
    20 P2[0]
  
  </text>
  
  
  <text x="324" y="280" style="font-family:Helvetica; font-size:10; fill:#000000" text-anchor="start" id="PINDIPLAYNAME_Port_2_0" startOffset="0">
    
    Port_2_0
  
  </text>
  
  
  <text x="250" y="260" style="font-family:Helvetica; font-size:10; fill:#000000" startOffset="0">
    
    21 P2[2]
  
  </text>
  
  
  <text x="324" y="260" style="font-family:Helvetica; font-size:10; fill:#000000" text-anchor="start" id="PINDIPLAYNAME_Port_2_2" startOffset="0">
    
    Port_2_2
  
  </text>
  
  
  <text x="250" y="240" style="font-family:Helvetica; font-size:10; fill:#000000" startOffset="0">
    
    22 P2[4]
  
  </text>
  
  
  <text x="324" y="240" style="font-family:Helvetica; font-size:10; fill:#000000" text-anchor="start" id="PINDIPLAYNAME_Port_2_4" startOffset="0">
    
    Port_2_4
  
  </text>
  
  
  <text x="250" y="220" style="font-family:Helvetica; font-size:10; fill:#000000" startOffset="0">
    
    23 P2[6]
  
  </text>
  
  
  <text x="324" y="220" style="font-family:Helvetica; font-size:10; fill:#000000" text-anchor="start" id="PINDIPLAYNAME_Port_2_6" startOffset="0">
    
    Port_2_6
  
  </text>
  
  
  <text x="250" y="200" style="font-family:Helvetica; font-size:10; fill:#000000" startOffset="0">
    
    24 P0[0]
  
  </text>
  
  
  <text x="324" y="200" style="font-family:Helvetica; font-size:10; fill:#000000" text-anchor="start" id="PINDIPLAYNAME_Port_0_0" startOffset="0">
    
    Port_0_0
  
  </text>
  
  
  <text x="250" y="180" style="font-family:Helvetica; font-size:10; fill:#000000" startOffset="0">
    
    25 P0[2]
  
  </text>
  
  
  <text x="324" y="180" style="font-family:Helvetica; font-size:10; fill:#000000" text-anchor="start" id="PINDIPLAYNAME_Port_0_2" startOffset="0">
    
    Port_0_2
  
  </text>
  
  
  <text x="250" y="160" style="font-family:Helvetica; font-size:10; fill:#000000" startOffset="0">
    
    26 P0[4]
  
  </text>
  
  
  <text x="324" y="160" style="font-family:Helvetica; font-size:10; fill:#000000" text-anchor="start" id="PINDIPLAYNAME_Port_0_4" startOffset="0">
    
    Port_0_4
  
  </text>
  
  
  <text x="250" y="140" style="font-family:Helvetica; font-size:10; fill:#000000" startOffset="0">
    
    27 P0[6]
  
  </text>
  
  
  <text x="324" y="140" style="font-family:Helvetica; font-size:10; fill:#000000" text-anchor="start" id="PINDIPLAYNAME_Port_0_6" startOffset="0">
    
    Port_0_6
  
  </text>
  
  
  <text x="250" y="120" style="font-family:Helvetica; font-size:10; fill:#000000" startOffset="0">
    
    28 VDD
  
  </text>
  
  
  <text x="324" y="120" style="font-family:Helvetica; font-size:10; fill:#000000" text-anchor="start" id="PINDIPLAYNAME_" startOffset="0">
    
    
  
  </text>
  

  <text x="70" y="320" style="font-family:Helvetica;font-size:10;fill:black;" text-anchor="end" id="PINDIPLAYNAME_Port_1_5" startOffset="0">
    pse_LCD_SHARED_0 LCDPin4
  </text>
  <text x="70" y="340" style="font-family:Helvetica;font-size:10;fill:black;" text-anchor="end" id="PINDIPLAYNAME_Port_1_3" startOffset="0">
    pse_LCD_SHARED_0 LCDPin14
  </text>
  <text x="70" y="360" style="font-family:Helvetica;font-size:10;fill:black;" text-anchor="end" id="PINDIPLAYNAME_Port_1_1" startOffset="0">
    pse_LCD_SHARED_0 LCDPin12
  </text>
  <text x="324" y="380" style="font-family:Helvetica;font-size:10;fill:black;" text-anchor="start" id="PINDIPLAYNAME_Port_1_0" startOffset="0">
    pse_LCD_SHARED_0 LCDPin11
  </text>
  <text x="324" y="360" style="font-family:Helvetica;font-size:10;fill:black;" text-anchor="start" id="PINDIPLAYNAME_Port_1_2" startOffset="0">
    pse_LCD_SHARED_0 LCDPin13
  </text>
  <text x="324" y="340" style="font-family:Helvetica;font-size:10;fill:black;" text-anchor="start" id="PINDIPLAYNAME_Port_1_4" startOffset="0">
    pse_LCD_SHARED_0 LCDPin6
  </text>
  <text x="324" y="320" style="font-family:Helvetica;font-size:10;fill:black;" text-anchor="start" id="PINDIPLAYNAME_Port_1_6" startOffset="0">
    pse_LCD_SHARED_0 LCDPin5
  </text>
</svg>
