Starting MAKE...
creating project.mk 

lib/elecede.asm

lib/psocconfig.asm

lib/psocconfigtbl.asm

lib/pwm1.asm

lib/pwm1int.asm

lib/pwm2.asm

lib/pwm2int.asm

./boot.asm

Linking..

  ROM 7% full. 1051 out of 16384 bytes used (does not include absolute areas).

  RAM 3% full. 6 bytes used (does not include stack usage).

Built with ICCM8C STD V7.05.00

 
Eltp4 - 0 error(s) 0 warning(s) 17:57:51

