 0000                   cpu LMM
                        .module cmx_lcd_func.c
                        .area text(rom, con, rel)
 0000                   .dbfile ./cmx_lcd_func.c
 0000                   .dbfile C:\Users\Link\DOCUME~1\PSoC\SYSTEM~1\SYSTEM~1\cmx_lcd_func.c
 0000                   .dbfunc e LCDStartSharedChan _LCDStartSharedChan fV
 0000           _LCDStartSharedChan::
 0000                   .dbline -1
 0000                   .dbline 17
 0000           ; //*****************************************************************************
 0000           ; //*****************************************************************************
 0000           ; //  FILENAME:  cmx_lcd_chan.c
 0000           ; //  @Version@
 0000           ; //  
 0000           ; //
 0000           ; //  DESCRIPTION:  Source file for the LCD channel.
 0000           ; //-----------------------------------------------------------------------------
 0000           ; //      Copyright (c) Cypress Semiconductor 2009. All Rights Reserved.
 0000           ; //*****************************************************************************
 0000           ; //*****************************************************************************
 0000           ; #include "lcd.h"
 0000           ; #include "stdlib.h"
 0000           ; 
 0000           ; //start function for all instance
 0000           ; void LCDStartSharedChan(void)
 0000           ; {
 0000                   .dbline 18
 0000           ;       LCD_Start(); //initializes LCD
 0000 10                push X
 0001 7C0000            xcall _LCD_Start
 0004 20                pop X
 0005                   .dbline -2
 0005           L1:
 0005                   .dbline 0 ; func end
 0005 7F                ret
 0006                   .dbend
 0006                   .dbfunc e LCDPrDecInt _LCDPrDecInt fV
 0006           ;  cNumberString -> X+2
 0006           ;              i -> X+0
 0006           ;         iValue -> X-5
 0006           _LCDPrDecInt::
 0006                   .dbline -1
 0006 10                push X
 0007 4F                mov X,SP
 0008 3809              add SP,9
 000A                   .dbline 23
 000A           ; }
 000A           ; 
 000A           ; //provide print integer value in decimal code
 000A           ; void LCDPrDecInt(int iValue)
 000A           ; {     
 000A                   .dbline 30
 000A           ;       //storage array converted value
 000A           ;       //5 cells for max or min integer> 1 cell for sign and last for null-terminated character 
 000A           ;       char cNumberString[7];
 000A           ;       int i;
 000A           ;       
 000A           ;       //converts an integer value to a string
 000A           ;       itoa(cNumberString,iValue,10);
 000A 5000              mov A,0
 000C 08                push A
 000D 500A              mov A,10
 000F 08                push A
 0010 52FB              mov A,[X-5]
 0012 08                push A
 0013 52FC              mov A,[X-4]
 0015 08                push A
 0016 62D000            mov REG[0xd0],>__r0
 0019 5A00              mov [__r1],X
 001B 060002            add [__r1],2
 001E 5007              mov A,7
 0020 08                push A
 0021 5100              mov A,[__r1]
 0023 08                push A
 0024 7C0000            xcall _itoa
 0027 38FA              add SP,-6
 0029                   .dbline 32
 0029           ;       //search the null-terminated character
 0029           ;       for(i=0;i<6;i++)
 0029 560100            mov [X+1],0
 002C 560000            mov [X+0],0
 002F           L3:
 002F                   .dbline 34
 002F           ;               //if  the null-terminated character is not located in last position
 002F           ;               if (cNumberString[i]==0x0) break;       
 002F 62D000            mov REG[0xd0],>__r0
 0032 550007            mov [__r0],7
 0035 5A00              mov [__r1],X
 0037 060002            add [__r1],2
 003A 5201              mov A,[X+1]
 003C 0200              add A,[__r1]
 003E 5300              mov [__r1],A
 0040 5200              mov A,[X+0]
 0042 0A00              adc A,[__r0]
 0044 60D4              mov REG[0xd4],A
 0046 3E00              mvi A,[__r1]
 0048 3900              cmp A,0
 004A B003              jnz L7
 004C                   .dbline 34
 004C 8034              xjmp L10
 004E           L7:
 004E           L4:
 004E                   .dbline 32
 004E 7701              inc [X+1]
 0050 0F0000            adc [X+0],0
 0053                   .dbline 32
 0053 5201              mov A,[X+1]
 0055 1106              sub A,6
 0057 5200              mov A,[X+0]
 0059 3180              xor A,-128
 005B 1980              sbb A,(0 ^ 0x80)
 005D CFD1              jc L3
 005F           X0:
 005F 8021              xjmp L10
 0061           L9:
 0061                   .dbline 37
 0061           ;       //put the character ' ' in cells, so as to clear last cells
 0061           ;       while (i<6)
 0061           ;       {
 0061                   .dbline 38
 0061           ;               cNumberString[i]=' ';
 0061 62D000            mov REG[0xd0],>__r0
 0064 550007            mov [__r0],7
 0067 5A00              mov [__r1],X
 0069 060002            add [__r1],2
 006C 5201              mov A,[X+1]
 006E 0200              add A,[__r1]
 0070 5300              mov [__r1],A
 0072 5200              mov A,[X+0]
 0074 0A00              adc A,[__r0]
 0076 60D5              mov REG[0xd5],A
 0078 5020              mov A,32
 007A 3F00              mvi [__r1],A
 007C                   .dbline 39
 007C           ;               i++;
 007C 7701              inc [X+1]
 007E 0F0000            adc [X+0],0
 0081                   .dbline 40
 0081           ;       }
 0081           L10:
 0081                   .dbline 36
 0081 5201              mov A,[X+1]
 0083 1106              sub A,6
 0085 5200              mov A,[X+0]
 0087 3180              xor A,-128
 0089 1980              sbb A,(0 ^ 0x80)
 008B CFD5              jc L9
 008D           X1:
 008D                   .dbline 42
 008D           ;       //put the null-terminated character in last position
 008D           ;       cNumberString[6]=0x0;
 008D 560800            mov [X+8],0
 0090                   .dbline 44
 0090           ;       //display string
 0090           ;       LCD_PrString(cNumberString);
 0090 62D000            mov REG[0xd0],>__r0
 0093 5A00              mov [__r1],X
 0095 060002            add [__r1],2
 0098 10                push X
 0099 5007              mov A,7
 009B 08                push A
 009C 5100              mov A,[__r1]
 009E 5C                mov X,A
 009F 18                pop A
 00A0 7C0000            xcall _LCD_PrString
 00A3 20                pop X
 00A4                   .dbline -2
 00A4           L2:
 00A4 38F7              add SP,-9
 00A6 20                pop X
 00A7                   .dbline 0 ; func end
 00A7 7F                ret
 00A8                   .dbsym l cNumberString 2 A[7:7]c
 00A8                   .dbsym l i 0 I
 00A8                   .dbsym l iValue -5 I
 00A8                   .dbend
