 0000                   cpu LMM
                        .module systemvars.c
                        .area text(rom, con, rel)
 0000                   .dbfile ./systemvars.c
                        .area data(ram, con, rel)
 0000                   .dbfile ./systemvars.c
 0000           _SystemVars::
 0000 00000000          .byte 0,0,0,0
 0004                   .dbfile C:\Users\Link\DOCUME~1\PSoC\SYSTEM~1\SYSTEM~1\systemvars.c
 0004                   .dbstruct 0 4 .5
 0004                   .dbfield 0 pse_LCD1 I
 0004                   .dbfield 2 pse_Input1 c
 0004                   .dbfield 3 pse_Output3 c
 0004                   .dbend
 0004                   .dbstruct 0 4 .4
 0004                   .dbfield 0 ReadOnlyVars S[.5]
 0004                   .dbend
 0004                   .dbsym e SystemVars _SystemVars S[.4]
