 0000                   cpu LMM
                        .module transferfunction.c
                        .area text(rom, con, rel)
 0000                   .dbfile ./transferfunction.c
 0000                   .dbfile C:\Users\Link\DOCUME~1\PSoC\SYSTEM~1\SYSTEM~1\transferfunction.c
 0000                   .dbfunc e TransferFunction _TransferFunction fV
 0000           _TransferFunction::
 0000                   .dbline -1
 0000                   .dbline 15
 0000           ; //
 0000           ; //  TransferFunction.c
 0000           ; //
 0000           ; 
 0000           ; #include <m8c.h>
 0000           ; #include "DriverDecl.h"
 0000           ; #include "CMXSystem.h"
 0000           ; #include "CMXSystemFunction.h"
 0000           ; #include "CMXSystemExtern.h"
 0000           ; #include "FunctionParamDecl.h"
 0000           ; 
 0000           ; 
 0000           ; 
 0000           ; void TransferFunction( void)
 0000           ; {
 0000                   .dbline -2
 0000           L8:
 0000                   .dbline 0 ; func end
 0000 7F                ret
 0001                   .dbend
