:4000000080673030303030307d03217e7e3030307e3030307e3030307e3030307e3030307d035d7e7e3030307e3030307e3030307e3030307e3030307e3030307e30303097
:4000400030303030303030303030303030303030303030303030303030303030303030307e3030307e303030711062e38770ef62e33841fefb50014e62e33855f80055f94a
:4000800000711062e00270ef62e338627105627505627905627d057c028f50005500013c0001a0053f008ff8500157ca5500003c0000a00b08283f00187509008ff2711017
:4000c00070ef62e000711062e00070ef62e2007c03b28fff50107f3030303030303030303030303030303030303030303030303030303030303030303030303030303030ab
:4001000030303030303030303030303030303030303030303030303030303030303030303030303030303030303030303030303030303030303030303030303030303030bf
:400140003030303030303030303030303030303071fd72a173207000883089e08aa08b30849085a086a087302303210022008010810082608330602b660063476500e600ea
:40018000e700d600b000b100b200b333b433b501b600b855b900ba10bb33bc33bd00be00ff20222140224461006900601562396733683363006600d100d300d000d200e147
:4001c000f3e200dfffde02dd00ff70ef62000071106200006201ff70ef6203ff620200711062020062030070ef62010062040071106204006205ff70ef6207ff6206007104
:400200001062060062070070ef62050062080071106208016209fe70ef620bfe620a017110620a00620b0070ef620900620c007110620c00620d0070ef620f00620e007180
:4002400010620e00620f0070ef620d00621000711062100062110070ef621300621200711062120062130070ef621100621400711062140062150070ef62170062160071be
:400280001062160062170070ef62150070ef7f7c02967c01ca7f1070ef500067500157507c02b1500167500157a17c02b170ef207f380210084f56fc00d00456fc011820e2
:4002c00070ef62e30010082839ffa01f4f48fc01a003711054fd18207509001008284f59fd610018207509008fd738fc7f21034f085d7321fc2b006073187f21fc4f085d81
:40030000712107480004b00a4170fe2b006071187f2700182b006071437001187f4173fc7f7e2103104f085d8321fc2b00608318207f4183fc7f4f0821c0082700205d83b6
:40034000213f2b0160835d8021df2b00608038fe7f43e0027f41e0fd7f62dafd7f7e43e1017f41e1fe7f4323017f4123fe7f2103104f085d8721fc2b00608718207f4187d3
:40038000fc7f219f4f085d8421602b006084187f2103104f085d8b21fc2b00608b18207f418bfc7f219f4f085d8821602b006088187f1050037c036e50037c039050037c57
:4003c00002ed7c036650037c0322208fff303030303030303030303030303030303030303030303030303030303030303030303030303030303030303030303030303030f7
:4004000030303030303030303030303030303030303030303030303030303030303030303030303030303030303030303030303030303030303030303030303030303030bc
:40044000303030303030303030303030303030303030303030303030303030303030303030303030303030303030303030303030303030303030303030303030303030307c
:40048000303030303030303030303030303030303030303030303030303030303030303030303030303030303030303030303030303030303030303030303030303030303c
:4004c00030303030303030303030303030303030303030303030303030303030303030303030303030303030303030303030303030303030303030303030303030303030fc
:4005000030303030303030303030303030303030303030303030303030303030303030303030303030303030303030303030303030303030303030303030303030303030bb
:40054000303030303030303030303030303030303030303030303030303030303030303030303030303030303030303030303030303030303030303030303030303030307b
:40058000303030303030303030303030303030303030303030303030303030303030303030303030303030303030303030303030303030303030303030303030303030303b
:4005c00030303030303030303030303030303030303030303030303030303030303030303030303030303030303030303030303030303030303030303030303030303030fb
:4006000030303030303030303030303030303030303030303030303030303030303030303030303030303030303030303030303030303030303030303030303030303030ba
:40064000303030303030303030303030303030303030303030303030303030303030303030303030303030303030303030303030303030303030303030303030303030307a
:40068000303030303030303030303030303030303030303030303030303030303030303030303030303030303030303030303030303030303030303030303030303030303a
:4006c00030303030303030303030303030303030303030303030303030303030303030303030303030303030303030303030303030303030303030303030303030303030fa
:4007000030303030303030303030303030303030303030303030303030303030303030303030303030303030303030303030303030303030303030303030303030303030b9
:400740003030303030303030303030303030303030303030303030303030303030303030303030303030303030303030303030303030303030303030303030303030303079
:400780003030303030303030303030303030303030303030303030303030303030303030303030303030303030303030303030303030303030303030303030303030303039
:4007c00030303030303030303030303030303030303030303030303030303030303030303030303030303030303030303030303030303030303030303030303030303030f9
:4008000030303030303030303030303030303030303030303030303030303030303030303030303030303030303030303030303030303030303030303030303030303030b8
:400840003030303030303030303030303030303030303030303030303030303030303030303030303030303030303030303030303030303030303030303030303030303078
:400880003030303030303030303030303030303030303030303030303030303030303030303030303030303030303030303030303030303030303030303030303030303038
:4008c00030303030303030303030303030303030303030303030303030303030303030303030303030303030303030303030303030303030303030303030303030303030f8
:4009000030303030303030303030303030303030303030303030303030303030303030303030303030303030303030303030303030303030303030303030303030303030b7
:400940003030303030303030303030303030303030303030303030303030303030303030303030303030303030303030303030303030303030303030303030303030303077
:400980003030303030303030303030303030303030303030303030303030303030303030303030303030303030303030303030303030303030303030303030303030303037
:4009c00030303030303030303030303030303030303030303030303030303030303030303030303030303030303030303030303030303030303030303030303030303030f7
:400a000030303030303030303030303030303030303030303030303030303030303030303030303030303030303030303030303030303030303030303030303030303030b6
:400a40003030303030303030303030303030303030303030303030303030303030303030303030303030303030303030303030303030303030303030303030303030303076
:400a80003030303030303030303030303030303030303030303030303030303030303030303030303030303030303030303030303030303030303030303030303030303036
:400ac00030303030303030303030303030303030303030303030303030303030303030303030303030303030303030303030303030303030303030303030303030303030f6
:400b000030303030303030303030303030303030303030303030303030303030303030303030303030303030303030303030303030303030303030303030303030303030b5
:400b40003030303030303030303030303030303030303030303030303030303030303030303030303030303030303030303030303030303030303030303030303030303075
:400b80003030303030303030303030303030303030303030303030303030303030303030303030303030303030303030303030303030303030303030303030303030303035
:400bc00030303030303030303030303030303030303030303030303030303030303030303030303030303030303030303030303030303030303030303030303030303030f5
:400c000030303030303030303030303030303030303030303030303030303030303030303030303030303030303030303030303030303030303030303030303030303030b4
:400c40003030303030303030303030303030303030303030303030303030303030303030303030303030303030303030303030303030303030303030303030303030303074
:400c80003030303030303030303030303030303030303030303030303030303030303030303030303030303030303030303030303030303030303030303030303030303034
:400cc00030303030303030303030303030303030303030303030303030303030303030303030303030303030303030303030303030303030303030303030303030303030f4
:400d000030303030303030303030303030303030303030303030303030303030303030303030303030303030303030303030303030303030303030303030303030303030b3
:400d40003030303030303030303030303030303030303030303030303030303030303030303030303030303030303030303030303030303030303030303030303030303073
:400d80003030303030303030303030303030303030303030303030303030303030303030303030303030303030303030303030303030303030303030303030303030303033
:400dc00030303030303030303030303030303030303030303030303030303030303030303030303030303030303030303030303030303030303030303030303030303030f3
:400e000030303030303030303030303030303030303030303030303030303030303030303030303030303030303030303030303030303030303030303030303030303030b2
:400e40003030303030303030303030303030303030303030303030303030303030303030303030303030303030303030303030303030303030303030303030303030303072
:400e80003030303030303030303030303030303030303030303030303030303030303030303030303030303030303030303030303030303030303030303030303030303032
:400ec00030303030303030303030303030303030303030303030303030303030303030303030303030303030303030303030303030303030303030303030303030303030f2
:400f000030303030303030303030303030303030303030303030303030303030303030303030303030303030303030303030303030303030303030303030303030303030b1
:400f40003030303030303030303030303030303030303030303030303030303030303030303030303030303030303030303030303030303030303030303030303030303071
:400f80003030303030303030303030303030303030303030303030303030303030303030303030303030303030303030303030303030303030303030303030303030303031
:400fc00030303030303030303030303030303030303030303030303030303030303030303030303030303030303030303030303030303030303030303030303030303030f1
:4010000030303030303030303030303030303030303030303030303030303030303030303030303030303030303030303030303030303030303030303030303030303030b0
:401040003030303030303030303030303030303030303030303030303030303030303030303030303030303030303030303030303030303030303030303030303030303070
:401080003030303030303030303030303030303030303030303030303030303030303030303030303030303030303030303030303030303030303030303030303030303030
:4010c00030303030303030303030303030303030303030303030303030303030303030303030303030303030303030303030303030303030303030303030303030303030f0
:4011000030303030303030303030303030303030303030303030303030303030303030303030303030303030303030303030303030303030303030303030303030303030af
:40114000303030303030303030303030303030303030303030303030303030303030303030303030303030303030303030303030303030303030303030303030303030306f
:40118000303030303030303030303030303030303030303030303030303030303030303030303030303030303030303030303030303030303030303030303030303030302f
:4011c00030303030303030303030303030303030303030303030303030303030303030303030303030303030303030303030303030303030303030303030303030303030ef
:4012000030303030303030303030303030303030303030303030303030303030303030303030303030303030303030303030303030303030303030303030303030303030ae
:40124000303030303030303030303030303030303030303030303030303030303030303030303030303030303030303030303030303030303030303030303030303030306e
:40128000303030303030303030303030303030303030303030303030303030303030303030303030303030303030303030303030303030303030303030303030303030302e
:4012c00030303030303030303030303030303030303030303030303030303030303030303030303030303030303030303030303030303030303030303030303030303030ee
:4013000030303030303030303030303030303030303030303030303030303030303030303030303030303030303030303030303030303030303030303030303030303030ad
:40134000303030303030303030303030303030303030303030303030303030303030303030303030303030303030303030303030303030303030303030303030303030306d
:40138000303030303030303030303030303030303030303030303030303030303030303030303030303030303030303030303030303030303030303030303030303030302d
:4013c00030303030303030303030303030303030303030303030303030303030303030303030303030303030303030303030303030303030303030303030303030303030ed
:4014000030303030303030303030303030303030303030303030303030303030303030303030303030303030303030303030303030303030303030303030303030303030ac
:40144000303030303030303030303030303030303030303030303030303030303030303030303030303030303030303030303030303030303030303030303030303030306c
:40148000303030303030303030303030303030303030303030303030303030303030303030303030303030303030303030303030303030303030303030303030303030302c
:4014c00030303030303030303030303030303030303030303030303030303030303030303030303030303030303030303030303030303030303030303030303030303030ec
:4015000030303030303030303030303030303030303030303030303030303030303030303030303030303030303030303030303030303030303030303030303030303030ab
:40154000303030303030303030303030303030303030303030303030303030303030303030303030303030303030303030303030303030303030303030303030303030306b
:40158000303030303030303030303030303030303030303030303030303030303030303030303030303030303030303030303030303030303030303030303030303030302b
:4015c00030303030303030303030303030303030303030303030303030303030303030303030303030303030303030303030303030303030303030303030303030303030eb
:4016000030303030303030303030303030303030303030303030303030303030303030303030303030303030303030303030303030303030303030303030303030303030aa
:40164000303030303030303030303030303030303030303030303030303030303030303030303030303030303030303030303030303030303030303030303030303030306a
:40168000303030303030303030303030303030303030303030303030303030303030303030303030303030303030303030303030303030303030303030303030303030302a
:4016c00030303030303030303030303030303030303030303030303030303030303030303030303030303030303030303030303030303030303030303030303030303030ea
:4017000030303030303030303030303030303030303030303030303030303030303030303030303030303030303030303030303030303030303030303030303030303030a9
:401740003030303030303030303030303030303030303030303030303030303030303030303030303030303030303030303030303030303030303030303030303030303069
:401780003030303030303030303030303030303030303030303030303030303030303030303030303030303030303030303030303030303030303030303030303030303029
:4017c00030303030303030303030303030303030303030303030303030303030303030303030303030303030303030303030303030303030303030303030303030303030e9
:4018000030303030303030303030303030303030303030303030303030303030303030303030303030303030303030303030303030303030303030303030303030303030a8
:401840003030303030303030303030303030303030303030303030303030303030303030303030303030303030303030303030303030303030303030303030303030303068
:401880003030303030303030303030303030303030303030303030303030303030303030303030303030303030303030303030303030303030303030303030303030303028
:4018c00030303030303030303030303030303030303030303030303030303030303030303030303030303030303030303030303030303030303030303030303030303030e8
:4019000030303030303030303030303030303030303030303030303030303030303030303030303030303030303030303030303030303030303030303030303030303030a7
:401940003030303030303030303030303030303030303030303030303030303030303030303030303030303030303030303030303030303030303030303030303030303067
:401980003030303030303030303030303030303030303030303030303030303030303030303030303030303030303030303030303030303030303030303030303030303027
:4019c00030303030303030303030303030303030303030303030303030303030303030303030303030303030303030303030303030303030303030303030303030303030e7
:401a000030303030303030303030303030303030303030303030303030303030303030303030303030303030303030303030303030303030303030303030303030303030a6
:401a40003030303030303030303030303030303030303030303030303030303030303030303030303030303030303030303030303030303030303030303030303030303066
:401a80003030303030303030303030303030303030303030303030303030303030303030303030303030303030303030303030303030303030303030303030303030303026
:401ac00030303030303030303030303030303030303030303030303030303030303030303030303030303030303030303030303030303030303030303030303030303030e6
:401b000030303030303030303030303030303030303030303030303030303030303030303030303030303030303030303030303030303030303030303030303030303030a5
:401b40003030303030303030303030303030303030303030303030303030303030303030303030303030303030303030303030303030303030303030303030303030303065
:401b80003030303030303030303030303030303030303030303030303030303030303030303030303030303030303030303030303030303030303030303030303030303025
:401bc00030303030303030303030303030303030303030303030303030303030303030303030303030303030303030303030303030303030303030303030303030303030e5
:401c000030303030303030303030303030303030303030303030303030303030303030303030303030303030303030303030303030303030303030303030303030303030a4
:401c40003030303030303030303030303030303030303030303030303030303030303030303030303030303030303030303030303030303030303030303030303030303064
:401c80003030303030303030303030303030303030303030303030303030303030303030303030303030303030303030303030303030303030303030303030303030303024
:401cc00030303030303030303030303030303030303030303030303030303030303030303030303030303030303030303030303030303030303030303030303030303030e4
:401d000030303030303030303030303030303030303030303030303030303030303030303030303030303030303030303030303030303030303030303030303030303030a3
:401d40003030303030303030303030303030303030303030303030303030303030303030303030303030303030303030303030303030303030303030303030303030303063
:401d80003030303030303030303030303030303030303030303030303030303030303030303030303030303030303030303030303030303030303030303030303030303023
:401dc00030303030303030303030303030303030303030303030303030303030303030303030303030303030303030303030303030303030303030303030303030303030e3
:401e000030303030303030303030303030303030303030303030303030303030303030303030303030303030303030303030303030303030303030303030303030303030a2
:401e40003030303030303030303030303030303030303030303030303030303030303030303030303030303030303030303030303030303030303030303030303030303062
:401e80003030303030303030303030303030303030303030303030303030303030303030303030303030303030303030303030303030303030303030303030303030303022
:401ec00030303030303030303030303030303030303030303030303030303030303030303030303030303030303030303030303030303030303030303030303030303030e2
:401f000030303030303030303030303030303030303030303030303030303030303030303030303030303030303030303030303030303030303030303030303030303030a1
:401f40003030303030303030303030303030303030303030303030303030303030303030303030303030303030303030303030303030303030303030303030303030303061
:401f80003030303030303030303030303030303030303030303030303030303030303030303030303030303030303030303030303030303030303030303030303030303021
:401fc00030303030303030303030303030303030303030303030303030303030303030303030303030303030303030303030303030303030303030303030303030303030e1
:4020000030303030303030303030303030303030303030303030303030303030303030303030303030303030303030303030303030303030303030303030303030303030a0
:402040003030303030303030303030303030303030303030303030303030303030303030303030303030303030303030303030303030303030303030303030303030303060
:402080003030303030303030303030303030303030303030303030303030303030303030303030303030303030303030303030303030303030303030303030303030303020
:4020c00030303030303030303030303030303030303030303030303030303030303030303030303030303030303030303030303030303030303030303030303030303030e0
:40210000303030303030303030303030303030303030303030303030303030303030303030303030303030303030303030303030303030303030303030303030303030309f
:40214000303030303030303030303030303030303030303030303030303030303030303030303030303030303030303030303030303030303030303030303030303030305f
:40218000303030303030303030303030303030303030303030303030303030303030303030303030303030303030303030303030303030303030303030303030303030301f
:4021c00030303030303030303030303030303030303030303030303030303030303030303030303030303030303030303030303030303030303030303030303030303030df
:40220000303030303030303030303030303030303030303030303030303030303030303030303030303030303030303030303030303030303030303030303030303030309e
:40224000303030303030303030303030303030303030303030303030303030303030303030303030303030303030303030303030303030303030303030303030303030305e
:40228000303030303030303030303030303030303030303030303030303030303030303030303030303030303030303030303030303030303030303030303030303030301e
:4022c00030303030303030303030303030303030303030303030303030303030303030303030303030303030303030303030303030303030303030303030303030303030de
:40230000303030303030303030303030303030303030303030303030303030303030303030303030303030303030303030303030303030303030303030303030303030309d
:40234000303030303030303030303030303030303030303030303030303030303030303030303030303030303030303030303030303030303030303030303030303030305d
:40238000303030303030303030303030303030303030303030303030303030303030303030303030303030303030303030303030303030303030303030303030303030301d
:4023c00030303030303030303030303030303030303030303030303030303030303030303030303030303030303030303030303030303030303030303030303030303030dd
:40240000303030303030303030303030303030303030303030303030303030303030303030303030303030303030303030303030303030303030303030303030303030309c
:40244000303030303030303030303030303030303030303030303030303030303030303030303030303030303030303030303030303030303030303030303030303030305c
:40248000303030303030303030303030303030303030303030303030303030303030303030303030303030303030303030303030303030303030303030303030303030301c
:4024c00030303030303030303030303030303030303030303030303030303030303030303030303030303030303030303030303030303030303030303030303030303030dc
:40250000303030303030303030303030303030303030303030303030303030303030303030303030303030303030303030303030303030303030303030303030303030309b
:40254000303030303030303030303030303030303030303030303030303030303030303030303030303030303030303030303030303030303030303030303030303030305b
:40258000303030303030303030303030303030303030303030303030303030303030303030303030303030303030303030303030303030303030303030303030303030301b
:4025c00030303030303030303030303030303030303030303030303030303030303030303030303030303030303030303030303030303030303030303030303030303030db
:40260000303030303030303030303030303030303030303030303030303030303030303030303030303030303030303030303030303030303030303030303030303030309a
:40264000303030303030303030303030303030303030303030303030303030303030303030303030303030303030303030303030303030303030303030303030303030305a
:40268000303030303030303030303030303030303030303030303030303030303030303030303030303030303030303030303030303030303030303030303030303030301a
:4026c00030303030303030303030303030303030303030303030303030303030303030303030303030303030303030303030303030303030303030303030303030303030da
:402700003030303030303030303030303030303030303030303030303030303030303030303030303030303030303030303030303030303030303030303030303030303099
:402740003030303030303030303030303030303030303030303030303030303030303030303030303030303030303030303030303030303030303030303030303030303059
:402780003030303030303030303030303030303030303030303030303030303030303030303030303030303030303030303030303030303030303030303030303030303019
:4027c00030303030303030303030303030303030303030303030303030303030303030303030303030303030303030303030303030303030303030303030303030303030d9
:402800003030303030303030303030303030303030303030303030303030303030303030303030303030303030303030303030303030303030303030303030303030303098
:402840003030303030303030303030303030303030303030303030303030303030303030303030303030303030303030303030303030303030303030303030303030303058
:402880003030303030303030303030303030303030303030303030303030303030303030303030303030303030303030303030303030303030303030303030303030303018
:4028c00030303030303030303030303030303030303030303030303030303030303030303030303030303030303030303030303030303030303030303030303030303030d8
:402900003030303030303030303030303030303030303030303030303030303030303030303030303030303030303030303030303030303030303030303030303030303097
:402940003030303030303030303030303030303030303030303030303030303030303030303030303030303030303030303030303030303030303030303030303030303057
:402980003030303030303030303030303030303030303030303030303030303030303030303030303030303030303030303030303030303030303030303030303030303017
:4029c00030303030303030303030303030303030303030303030303030303030303030303030303030303030303030303030303030303030303030303030303030303030d7
:402a00003030303030303030303030303030303030303030303030303030303030303030303030303030303030303030303030303030303030303030303030303030303096
:402a40003030303030303030303030303030303030303030303030303030303030303030303030303030303030303030303030303030303030303030303030303030303056
:402a80003030303030303030303030303030303030303030303030303030303030303030303030303030303030303030303030303030303030303030303030303030303016
:402ac00030303030303030303030303030303030303030303030303030303030303030303030303030303030303030303030303030303030303030303030303030303030d6
:402b00003030303030303030303030303030303030303030303030303030303030303030303030303030303030303030303030303030303030303030303030303030303095
:402b40003030303030303030303030303030303030303030303030303030303030303030303030303030303030303030303030303030303030303030303030303030303055
:402b80003030303030303030303030303030303030303030303030303030303030303030303030303030303030303030303030303030303030303030303030303030303015
:402bc00030303030303030303030303030303030303030303030303030303030303030303030303030303030303030303030303030303030303030303030303030303030d5
:402c00003030303030303030303030303030303030303030303030303030303030303030303030303030303030303030303030303030303030303030303030303030303094
:402c40003030303030303030303030303030303030303030303030303030303030303030303030303030303030303030303030303030303030303030303030303030303054
:402c80003030303030303030303030303030303030303030303030303030303030303030303030303030303030303030303030303030303030303030303030303030303014
:402cc00030303030303030303030303030303030303030303030303030303030303030303030303030303030303030303030303030303030303030303030303030303030d4
:402d00003030303030303030303030303030303030303030303030303030303030303030303030303030303030303030303030303030303030303030303030303030303093
:402d40003030303030303030303030303030303030303030303030303030303030303030303030303030303030303030303030303030303030303030303030303030303053
:402d80003030303030303030303030303030303030303030303030303030303030303030303030303030303030303030303030303030303030303030303030303030303013
:402dc00030303030303030303030303030303030303030303030303030303030303030303030303030303030303030303030303030303030303030303030303030303030d3
:402e00003030303030303030303030303030303030303030303030303030303030303030303030303030303030303030303030303030303030303030303030303030303092
:402e40003030303030303030303030303030303030303030303030303030303030303030303030303030303030303030303030303030303030303030303030303030303052
:402e80003030303030303030303030303030303030303030303030303030303030303030303030303030303030303030303030303030303030303030303030303030303012
:402ec00030303030303030303030303030303030303030303030303030303030303030303030303030303030303030303030303030303030303030303030303030303030d2
:402f00003030303030303030303030303030303030303030303030303030303030303030303030303030303030303030303030303030303030303030303030303030303091
:402f40003030303030303030303030303030303030303030303030303030303030303030303030303030303030303030303030303030303030303030303030303030303051
:402f80003030303030303030303030303030303030303030303030303030303030303030303030303030303030303030303030303030303030303030303030303030303011
:402fc00030303030303030303030303030303030303030303030303030303030303030303030303030303030303030303030303030303030303030303030303030303030d1
:403000003030303030303030303030303030303030303030303030303030303030303030303030303030303030303030303030303030303030303030303030303030303090
:403040003030303030303030303030303030303030303030303030303030303030303030303030303030303030303030303030303030303030303030303030303030303050
:403080003030303030303030303030303030303030303030303030303030303030303030303030303030303030303030303030303030303030303030303030303030303010
:4030c00030303030303030303030303030303030303030303030303030303030303030303030303030303030303030303030303030303030303030303030303030303030d0
:40310000303030303030303030303030303030303030303030303030303030303030303030303030303030303030303030303030303030303030303030303030303030308f
:40314000303030303030303030303030303030303030303030303030303030303030303030303030303030303030303030303030303030303030303030303030303030304f
:40318000303030303030303030303030303030303030303030303030303030303030303030303030303030303030303030303030303030303030303030303030303030300f
:4031c00030303030303030303030303030303030303030303030303030303030303030303030303030303030303030303030303030303030303030303030303030303030cf
:40320000303030303030303030303030303030303030303030303030303030303030303030303030303030303030303030303030303030303030303030303030303030308e
:40324000303030303030303030303030303030303030303030303030303030303030303030303030303030303030303030303030303030303030303030303030303030304e
:40328000303030303030303030303030303030303030303030303030303030303030303030303030303030303030303030303030303030303030303030303030303030300e
:4032c00030303030303030303030303030303030303030303030303030303030303030303030303030303030303030303030303030303030303030303030303030303030ce
:40330000303030303030303030303030303030303030303030303030303030303030303030303030303030303030303030303030303030303030303030303030303030308d
:40334000303030303030303030303030303030303030303030303030303030303030303030303030303030303030303030303030303030303030303030303030303030304d
:40338000303030303030303030303030303030303030303030303030303030303030303030303030303030303030303030303030303030303030303030303030303030300d
:4033c00030303030303030303030303030303030303030303030303030303030303030303030303030303030303030303030303030303030303030303030303030303030cd
:40340000303030303030303030303030303030303030303030303030303030303030303030303030303030303030303030303030303030303030303030303030303030308c
:40344000303030303030303030303030303030303030303030303030303030303030303030303030303030303030303030303030303030303030303030303030303030304c
:40348000303030303030303030303030303030303030303030303030303030303030303030303030303030303030303030303030303030303030303030303030303030300c
:4034c00030303030303030303030303030303030303030303030303030303030303030303030303030303030303030303030303030303030303030303030303030303030cc
:40350000303030303030303030303030303030303030303030303030303030303030303030303030303030303030303030303030303030303030303030303030303030308b
:40354000303030303030303030303030303030303030303030303030303030303030303030303030303030303030303030303030303030303030303030303030303030304b
:40358000303030303030303030303030303030303030303030303030303030303030303030303030303030303030303030303030303030303030303030303030303030300b
:4035c00030303030303030303030303030303030303030303030303030303030303030303030303030303030303030303030303030303030303030303030303030303030cb
:40360000303030303030303030303030303030303030303030303030303030303030303030303030303030303030303030303030303030303030303030303030303030308a
:40364000303030303030303030303030303030303030303030303030303030303030303030303030303030303030303030303030303030303030303030303030303030304a
:40368000303030303030303030303030303030303030303030303030303030303030303030303030303030303030303030303030303030303030303030303030303030300a
:4036c00030303030303030303030303030303030303030303030303030303030303030303030303030303030303030303030303030303030303030303030303030303030ca
:403700003030303030303030303030303030303030303030303030303030303030303030303030303030303030303030303030303030303030303030303030303030303089
:403740003030303030303030303030303030303030303030303030303030303030303030303030303030303030303030303030303030303030303030303030303030303049
:403780003030303030303030303030303030303030303030303030303030303030303030303030303030303030303030303030303030303030303030303030303030303009
:4037c00030303030303030303030303030303030303030303030303030303030303030303030303030303030303030303030303030303030303030303030303030303030c9
:403800003030303030303030303030303030303030303030303030303030303030303030303030303030303030303030303030303030303030303030303030303030303088
:403840003030303030303030303030303030303030303030303030303030303030303030303030303030303030303030303030303030303030303030303030303030303048
:403880003030303030303030303030303030303030303030303030303030303030303030303030303030303030303030303030303030303030303030303030303030303008
:4038c00030303030303030303030303030303030303030303030303030303030303030303030303030303030303030303030303030303030303030303030303030303030c8
:403900003030303030303030303030303030303030303030303030303030303030303030303030303030303030303030303030303030303030303030303030303030303087
:403940003030303030303030303030303030303030303030303030303030303030303030303030303030303030303030303030303030303030303030303030303030303047
:403980003030303030303030303030303030303030303030303030303030303030303030303030303030303030303030303030303030303030303030303030303030303007
:4039c00030303030303030303030303030303030303030303030303030303030303030303030303030303030303030303030303030303030303030303030303030303030c7
:403a00003030303030303030303030303030303030303030303030303030303030303030303030303030303030303030303030303030303030303030303030303030303086
:403a40003030303030303030303030303030303030303030303030303030303030303030303030303030303030303030303030303030303030303030303030303030303046
:403a80003030303030303030303030303030303030303030303030303030303030303030303030303030303030303030303030303030303030303030303030303030303006
:403ac00030303030303030303030303030303030303030303030303030303030303030303030303030303030303030303030303030303030303030303030303030303030c6
:403b00003030303030303030303030303030303030303030303030303030303030303030303030303030303030303030303030303030303030303030303030303030303085
:403b40003030303030303030303030303030303030303030303030303030303030303030303030303030303030303030303030303030303030303030303030303030303045
:403b80003030303030303030303030303030303030303030303030303030303030303030303030303030303030303030303030303030303030303030303030303030303005
:403bc00030303030303030303030303030303030303030303030303030303030303030303030303030303030303030303030303030303030303030303030303030303030c5
:403c00003030303030303030303030303030303030303030303030303030303030303030303030303030303030303030303030303030303030303030303030303030303084
:403c40003030303030303030303030303030303030303030303030303030303030303030303030303030303030303030303030303030303030303030303030303030303044
:403c80003030303030303030303030303030303030303030303030303030303030303030303030303030303030303030303030303030303030303030303030303030303004
:403cc00030303030303030303030303030303030303030303030303030303030303030303030303030303030303030303030303030303030303030303030303030303030c4
:403d00003030303030303030303030303030303030303030303030303030303030303030303030303030303030303030303030303030303030303030303030303030303083
:403d40003030303030303030303030303030303030303030303030303030303030303030303030303030303030303030303030303030303030303030303030303030303043
:403d80003030303030303030303030303030303030303030303030303030303030303030303030303030303030303030303030303030303030303030303030303030303003
:403dc00030303030303030303030303030303030303030303030303030303030303030303030303030303030303030303030303030303030303030303030303030303030c3
:403e00003030303030303030303030303030303030303030303030303030303030303030303030303030303030303030303030303030303030303030303030303030303082
:403e40003030303030303030303030303030303030303030303030303030303030303030303030303030303030303030303030303030303030303030303030303030303042
:403e80003030303030303030303030303030303030303030303030303030303030303030303030303030303030303030303030303030303030303030303030303030303002
:403ec00030303030303030303030303030303030303030303030303030303030303030303030303030303030303030303030303030303030303030303030303030303030c2
:403f00003030303030303030303030303030303030303030303030303030303030303030303030303030303030303030303030303030303030303030303030303030303081
:403f40003030303030303030303030303030303030303030303030303030303030303030303030303030303030303030303030303030303030303030303030303030303041
:403f80003030303030303030303030303030303030303030303030303030303030303030303030303030303030303030303030303030303030303030303030303030303001
:403fc00030303030303030303030303030303030303030303030303030303030303030303030303030303030303030303030303030303030303030303030303030303030c1
:020000040010ea
:40000000ffffffffffffffffffffffffffffffffffffffffffffffffffffffffffffffffffffffffffffffffffffffffffffffffffffffffffffffffffffffffffffffff00
:020000040020da
:0200000070d9b5
:00000001ff
