 0000                   cpu LMM
                        .module cmx_i2cm_chan_c.c
                        .area text(rom, con, rel)
 0000                   .dbfile ./cmx_i2cm_chan_c.c
 0000                   .dbfile C:\Users\Link\DOCUME~1\PSoC\GHJKYG~1\GHJKYG~1\GHJKYG~1\cmx_i2cm_chan_c.c
 0000                   .dbfunc e InitI2CmChan _InitI2CmChan fV
 0000           _InitI2CmChan::
 0000                   .dbline -1
 0000                   .dbline 25
 0000           ; //*****************************************************************************
 0000           ; //*****************************************************************************
 0000           ; //  FILENAME:  CMS_I2Cm_CHAN_c.h              
 0000           ; //  @Version@
 0000           ; //  
 0000           ; //
 0000           ; //  DESCRIPTION:  This file contains the initialization function for the 
 0000           ; //                software I2C master channel.
 0000           ; //
 0000           ; //-----------------------------------------------------------------------------
 0000           ; //      Copyright (c) Cypress Semiconductor 2009. All Rights Reserved.
 0000           ; //*****************************************************************************
 0000           ; //*****************************************************************************
 0000           ; 
 0000           ; #include "m8c.h"
 0000           ; #include "CMX_I2Cm_CHAN.h"
 0000           ; 
 0000           ; // *********************** InitI2CmChan() *******************************
 0000           ; //
 0000           ; // Description:
 0000           ; //   This function starts the I2Cm user module.
 0000           ; //
 0000           ; 
 0000           ; void InitI2CmChan( void )
 0000           ; {
 0000                   .dbline 26
 0000           ;       I2Cm_Start();
 0000 10                push X
 0001 7C0000            xcall _I2Cm_Start
 0004 20                pop X
 0005                   .dbline -2
 0005           L1:
 0005                   .dbline 0 ; func end
 0005 7F                ret
 0006                   .dbend
