:4000000080673030303030307e3030307e3030307e3030307e3030307e3030307e3030307d02ed7e7d02ec7e7e3030307e3030307e3030307e3030307e3030307e3030303e
:4000400030303030303030303030303030303030303030303030303030303030303030307e3030307e303030711062e38770ef62e33841fefb50084e62e33855f80055f943
:4000800000711062e00270ef62e338627105627505627905627d057c028550005504083c0408a0053f048ff8500157c05504003c0400a00b08283f04187509008ff2711005
:4000c00070ef62e000711062e00270ef62e2007c05a48fff50107f3030303030303030303030303030303030303030303030303030303030303030303030303030303030b5
:4001000030303030303030303030303030303030303030303030303030303030303030303030303030303030303030303030303030303030303030303030303030303030bf
:40014000303030303030303030303030303030304572726f722034303400230021fe227f270025f8267c6028660063056500e600e700d600b000b100b200b336b433b501fd
:40018000b600b855b900ba10bb33bc33bd00be00ff20212111224424212511264561006900600062006733683363006600d100d300d000d200e1ffe200df12de02dd00ffa4
:4001c00070ef62000071106200016201fe70ef6203fe620201711062020062030070ef62010062040071106204006205ff70ef6207ff620600711062060062070070ef62d1
:400200000500620800711062087f62098070ef620b80620a007110620a00620b0070ef620900620c007110620c00620d0070ef620f00620e007110620e00620f0070ef62ef
:400240000d00621000711062100062110070ef621300621200711062120062130070ef621100621400711062140062150070ef621700621600711062160062170070ef62ae
:40028000150070ef7f55050055067f5507807c02957c01c07f1070ef5000675001575a7c02b0500167500157917c02b070ef207f380210084f56fc00d00456fc0118207037
:4002c000ef62e30010082839ffa01f4f48fc01a003711054fd18207509001008284f59fd610018207509008fd738fc7f7e7e081028b00420187f903c201875dff2748fefdc
:40030000303132333435363738394142434445460867676767210fffe7901918210fffe090127f4b9fea5b9fe77f5200a0069004758ff87f905f0867676767210f90381892
:40034000210f40404090307f904b0867676767210f900918210f40404090017f082605805105600818210f29102a056008530540218f530560087f082605802e0520510582
:40038000600818210f29302a05600853054021af530560087f08260580510560082606f051067110600870ef2e054051056008401057ff2e05505105600840405d0808269f
:4003c00005c0510560084040402e05505105600840402605c051056008182108a00479bfd3202e067f51067110600870ef187f2606802e067f2607805106711060085107b3
:40040000600970ef50fa906350fa905f50039f4c5052905750039f44905f905d905b50039f3a505a904550029f32505a903d50089f16505a903550019f0e505a902d50063e
:400440009f06500e9f02502c9efe50089efa500c9ef650039ef2505a90117f80c094d4210310fff74f03ff209ede7f900c78bffc7f08193a7c010101010871105de070efa7
:4004800021073905d006ffe978bffe187f1059009fcd203dfe00b005500080113dfe06d00752fe15fe8006500617fe059e867bffbfe27f4f1052fd59fc9fa4203dfa00b00a
:4004c00005500080113dfa06d00752fa15fa8006500617fa059e5d7bfbbfe27f210308ff7a03009e633dfe00b005502080133dfe09d00952fe7856fe00800617fe08500755
:400500009e3218787bffbfd77f4f52fd210308ff4a03fc9e333dfa00b005502080133dfa09d00952fa7856fa00800617fa0850079e0218787bfbbfd77f4f080850409e0887
:4005400056000156010852003b01d0055000800350ff9de07b01bfef77003d0009bfe51818500c9de37f0010181c1e1f1f001008040201004f3803540250409dcb560000c0
:4005800056010852003d0200b005ffda8003ffdd9da27b01bfee77003d0007bfe438fd500c9da57f104f380c5503505504015a01060102105500005104580308283f0118a0
:4005c00075090076003c000abff27c03ef500057007c045f205a030603021051040851035c187c032a208048560100560000800677010f00005201530152005302470280fd
:40060000a0095503ff5504ff800755030055040050e0120150ab1a0250001a0351043180530050801a00dfc9711045000470cf8fb838f4208fff303030303030303030306e
:40064000303030303030303030303030303030303030303030303030303030303030303030303030303030303030303030303030303030303030303030303030303030307a
:40068000303030303030303030303030303030303030303030303030303030303030303030303030303030303030303030303030303030303030303030303030303030303a
:4006c00030303030303030303030303030303030303030303030303030303030303030303030303030303030303030303030303030303030303030303030303030303030fa
:4007000030303030303030303030303030303030303030303030303030303030303030303030303030303030303030303030303030303030303030303030303030303030b9
:400740003030303030303030303030303030303030303030303030303030303030303030303030303030303030303030303030303030303030303030303030303030303079
:400780003030303030303030303030303030303030303030303030303030303030303030303030303030303030303030303030303030303030303030303030303030303039
:4007c00030303030303030303030303030303030303030303030303030303030303030303030303030303030303030303030303030303030303030303030303030303030f9
:4008000030303030303030303030303030303030303030303030303030303030303030303030303030303030303030303030303030303030303030303030303030303030b8
:400840003030303030303030303030303030303030303030303030303030303030303030303030303030303030303030303030303030303030303030303030303030303078
:400880003030303030303030303030303030303030303030303030303030303030303030303030303030303030303030303030303030303030303030303030303030303038
:4008c00030303030303030303030303030303030303030303030303030303030303030303030303030303030303030303030303030303030303030303030303030303030f8
:4009000030303030303030303030303030303030303030303030303030303030303030303030303030303030303030303030303030303030303030303030303030303030b7
:400940003030303030303030303030303030303030303030303030303030303030303030303030303030303030303030303030303030303030303030303030303030303077
:400980003030303030303030303030303030303030303030303030303030303030303030303030303030303030303030303030303030303030303030303030303030303037
:4009c00030303030303030303030303030303030303030303030303030303030303030303030303030303030303030303030303030303030303030303030303030303030f7
:400a000030303030303030303030303030303030303030303030303030303030303030303030303030303030303030303030303030303030303030303030303030303030b6
:400a40003030303030303030303030303030303030303030303030303030303030303030303030303030303030303030303030303030303030303030303030303030303076
:400a80003030303030303030303030303030303030303030303030303030303030303030303030303030303030303030303030303030303030303030303030303030303036
:400ac00030303030303030303030303030303030303030303030303030303030303030303030303030303030303030303030303030303030303030303030303030303030f6
:400b000030303030303030303030303030303030303030303030303030303030303030303030303030303030303030303030303030303030303030303030303030303030b5
:400b40003030303030303030303030303030303030303030303030303030303030303030303030303030303030303030303030303030303030303030303030303030303075
:400b80003030303030303030303030303030303030303030303030303030303030303030303030303030303030303030303030303030303030303030303030303030303035
:400bc00030303030303030303030303030303030303030303030303030303030303030303030303030303030303030303030303030303030303030303030303030303030f5
:400c000030303030303030303030303030303030303030303030303030303030303030303030303030303030303030303030303030303030303030303030303030303030b4
:400c40003030303030303030303030303030303030303030303030303030303030303030303030303030303030303030303030303030303030303030303030303030303074
:400c80003030303030303030303030303030303030303030303030303030303030303030303030303030303030303030303030303030303030303030303030303030303034
:400cc00030303030303030303030303030303030303030303030303030303030303030303030303030303030303030303030303030303030303030303030303030303030f4
:400d000030303030303030303030303030303030303030303030303030303030303030303030303030303030303030303030303030303030303030303030303030303030b3
:400d40003030303030303030303030303030303030303030303030303030303030303030303030303030303030303030303030303030303030303030303030303030303073
:400d80003030303030303030303030303030303030303030303030303030303030303030303030303030303030303030303030303030303030303030303030303030303033
:400dc00030303030303030303030303030303030303030303030303030303030303030303030303030303030303030303030303030303030303030303030303030303030f3
:400e000030303030303030303030303030303030303030303030303030303030303030303030303030303030303030303030303030303030303030303030303030303030b2
:400e40003030303030303030303030303030303030303030303030303030303030303030303030303030303030303030303030303030303030303030303030303030303072
:400e80003030303030303030303030303030303030303030303030303030303030303030303030303030303030303030303030303030303030303030303030303030303032
:400ec00030303030303030303030303030303030303030303030303030303030303030303030303030303030303030303030303030303030303030303030303030303030f2
:400f000030303030303030303030303030303030303030303030303030303030303030303030303030303030303030303030303030303030303030303030303030303030b1
:400f40003030303030303030303030303030303030303030303030303030303030303030303030303030303030303030303030303030303030303030303030303030303071
:400f80003030303030303030303030303030303030303030303030303030303030303030303030303030303030303030303030303030303030303030303030303030303031
:400fc00030303030303030303030303030303030303030303030303030303030303030303030303030303030303030303030303030303030303030303030303030303030f1
:4010000030303030303030303030303030303030303030303030303030303030303030303030303030303030303030303030303030303030303030303030303030303030b0
:401040003030303030303030303030303030303030303030303030303030303030303030303030303030303030303030303030303030303030303030303030303030303070
:401080003030303030303030303030303030303030303030303030303030303030303030303030303030303030303030303030303030303030303030303030303030303030
:4010c00030303030303030303030303030303030303030303030303030303030303030303030303030303030303030303030303030303030303030303030303030303030f0
:4011000030303030303030303030303030303030303030303030303030303030303030303030303030303030303030303030303030303030303030303030303030303030af
:40114000303030303030303030303030303030303030303030303030303030303030303030303030303030303030303030303030303030303030303030303030303030306f
:40118000303030303030303030303030303030303030303030303030303030303030303030303030303030303030303030303030303030303030303030303030303030302f
:4011c00030303030303030303030303030303030303030303030303030303030303030303030303030303030303030303030303030303030303030303030303030303030ef
:4012000030303030303030303030303030303030303030303030303030303030303030303030303030303030303030303030303030303030303030303030303030303030ae
:40124000303030303030303030303030303030303030303030303030303030303030303030303030303030303030303030303030303030303030303030303030303030306e
:40128000303030303030303030303030303030303030303030303030303030303030303030303030303030303030303030303030303030303030303030303030303030302e
:4012c00030303030303030303030303030303030303030303030303030303030303030303030303030303030303030303030303030303030303030303030303030303030ee
:4013000030303030303030303030303030303030303030303030303030303030303030303030303030303030303030303030303030303030303030303030303030303030ad
:40134000303030303030303030303030303030303030303030303030303030303030303030303030303030303030303030303030303030303030303030303030303030306d
:40138000303030303030303030303030303030303030303030303030303030303030303030303030303030303030303030303030303030303030303030303030303030302d
:4013c00030303030303030303030303030303030303030303030303030303030303030303030303030303030303030303030303030303030303030303030303030303030ed
:4014000030303030303030303030303030303030303030303030303030303030303030303030303030303030303030303030303030303030303030303030303030303030ac
:40144000303030303030303030303030303030303030303030303030303030303030303030303030303030303030303030303030303030303030303030303030303030306c
:40148000303030303030303030303030303030303030303030303030303030303030303030303030303030303030303030303030303030303030303030303030303030302c
:4014c00030303030303030303030303030303030303030303030303030303030303030303030303030303030303030303030303030303030303030303030303030303030ec
:4015000030303030303030303030303030303030303030303030303030303030303030303030303030303030303030303030303030303030303030303030303030303030ab
:40154000303030303030303030303030303030303030303030303030303030303030303030303030303030303030303030303030303030303030303030303030303030306b
:40158000303030303030303030303030303030303030303030303030303030303030303030303030303030303030303030303030303030303030303030303030303030302b
:4015c00030303030303030303030303030303030303030303030303030303030303030303030303030303030303030303030303030303030303030303030303030303030eb
:4016000030303030303030303030303030303030303030303030303030303030303030303030303030303030303030303030303030303030303030303030303030303030aa
:40164000303030303030303030303030303030303030303030303030303030303030303030303030303030303030303030303030303030303030303030303030303030306a
:40168000303030303030303030303030303030303030303030303030303030303030303030303030303030303030303030303030303030303030303030303030303030302a
:4016c00030303030303030303030303030303030303030303030303030303030303030303030303030303030303030303030303030303030303030303030303030303030ea
:4017000030303030303030303030303030303030303030303030303030303030303030303030303030303030303030303030303030303030303030303030303030303030a9
:401740003030303030303030303030303030303030303030303030303030303030303030303030303030303030303030303030303030303030303030303030303030303069
:401780003030303030303030303030303030303030303030303030303030303030303030303030303030303030303030303030303030303030303030303030303030303029
:4017c00030303030303030303030303030303030303030303030303030303030303030303030303030303030303030303030303030303030303030303030303030303030e9
:4018000030303030303030303030303030303030303030303030303030303030303030303030303030303030303030303030303030303030303030303030303030303030a8
:401840003030303030303030303030303030303030303030303030303030303030303030303030303030303030303030303030303030303030303030303030303030303068
:401880003030303030303030303030303030303030303030303030303030303030303030303030303030303030303030303030303030303030303030303030303030303028
:4018c00030303030303030303030303030303030303030303030303030303030303030303030303030303030303030303030303030303030303030303030303030303030e8
:4019000030303030303030303030303030303030303030303030303030303030303030303030303030303030303030303030303030303030303030303030303030303030a7
:401940003030303030303030303030303030303030303030303030303030303030303030303030303030303030303030303030303030303030303030303030303030303067
:401980003030303030303030303030303030303030303030303030303030303030303030303030303030303030303030303030303030303030303030303030303030303027
:4019c00030303030303030303030303030303030303030303030303030303030303030303030303030303030303030303030303030303030303030303030303030303030e7
:401a000030303030303030303030303030303030303030303030303030303030303030303030303030303030303030303030303030303030303030303030303030303030a6
:401a40003030303030303030303030303030303030303030303030303030303030303030303030303030303030303030303030303030303030303030303030303030303066
:401a80003030303030303030303030303030303030303030303030303030303030303030303030303030303030303030303030303030303030303030303030303030303026
:401ac00030303030303030303030303030303030303030303030303030303030303030303030303030303030303030303030303030303030303030303030303030303030e6
:401b000030303030303030303030303030303030303030303030303030303030303030303030303030303030303030303030303030303030303030303030303030303030a5
:401b40003030303030303030303030303030303030303030303030303030303030303030303030303030303030303030303030303030303030303030303030303030303065
:401b80003030303030303030303030303030303030303030303030303030303030303030303030303030303030303030303030303030303030303030303030303030303025
:401bc00030303030303030303030303030303030303030303030303030303030303030303030303030303030303030303030303030303030303030303030303030303030e5
:401c000030303030303030303030303030303030303030303030303030303030303030303030303030303030303030303030303030303030303030303030303030303030a4
:401c40003030303030303030303030303030303030303030303030303030303030303030303030303030303030303030303030303030303030303030303030303030303064
:401c80003030303030303030303030303030303030303030303030303030303030303030303030303030303030303030303030303030303030303030303030303030303024
:401cc00030303030303030303030303030303030303030303030303030303030303030303030303030303030303030303030303030303030303030303030303030303030e4
:401d000030303030303030303030303030303030303030303030303030303030303030303030303030303030303030303030303030303030303030303030303030303030a3
:401d40003030303030303030303030303030303030303030303030303030303030303030303030303030303030303030303030303030303030303030303030303030303063
:401d80003030303030303030303030303030303030303030303030303030303030303030303030303030303030303030303030303030303030303030303030303030303023
:401dc00030303030303030303030303030303030303030303030303030303030303030303030303030303030303030303030303030303030303030303030303030303030e3
:401e000030303030303030303030303030303030303030303030303030303030303030303030303030303030303030303030303030303030303030303030303030303030a2
:401e40003030303030303030303030303030303030303030303030303030303030303030303030303030303030303030303030303030303030303030303030303030303062
:401e80003030303030303030303030303030303030303030303030303030303030303030303030303030303030303030303030303030303030303030303030303030303022
:401ec00030303030303030303030303030303030303030303030303030303030303030303030303030303030303030303030303030303030303030303030303030303030e2
:401f000030303030303030303030303030303030303030303030303030303030303030303030303030303030303030303030303030303030303030303030303030303030a1
:401f40003030303030303030303030303030303030303030303030303030303030303030303030303030303030303030303030303030303030303030303030303030303061
:401f80003030303030303030303030303030303030303030303030303030303030303030303030303030303030303030303030303030303030303030303030303030303021
:401fc00030303030303030303030303030303030303030303030303030303030303030303030303030303030303030303030303030303030303030303030303030303030e1
:4020000030303030303030303030303030303030303030303030303030303030303030303030303030303030303030303030303030303030303030303030303030303030a0
:402040003030303030303030303030303030303030303030303030303030303030303030303030303030303030303030303030303030303030303030303030303030303060
:402080003030303030303030303030303030303030303030303030303030303030303030303030303030303030303030303030303030303030303030303030303030303020
:4020c00030303030303030303030303030303030303030303030303030303030303030303030303030303030303030303030303030303030303030303030303030303030e0
:40210000303030303030303030303030303030303030303030303030303030303030303030303030303030303030303030303030303030303030303030303030303030309f
:40214000303030303030303030303030303030303030303030303030303030303030303030303030303030303030303030303030303030303030303030303030303030305f
:40218000303030303030303030303030303030303030303030303030303030303030303030303030303030303030303030303030303030303030303030303030303030301f
:4021c00030303030303030303030303030303030303030303030303030303030303030303030303030303030303030303030303030303030303030303030303030303030df
:40220000303030303030303030303030303030303030303030303030303030303030303030303030303030303030303030303030303030303030303030303030303030309e
:40224000303030303030303030303030303030303030303030303030303030303030303030303030303030303030303030303030303030303030303030303030303030305e
:40228000303030303030303030303030303030303030303030303030303030303030303030303030303030303030303030303030303030303030303030303030303030301e
:4022c00030303030303030303030303030303030303030303030303030303030303030303030303030303030303030303030303030303030303030303030303030303030de
:40230000303030303030303030303030303030303030303030303030303030303030303030303030303030303030303030303030303030303030303030303030303030309d
:40234000303030303030303030303030303030303030303030303030303030303030303030303030303030303030303030303030303030303030303030303030303030305d
:40238000303030303030303030303030303030303030303030303030303030303030303030303030303030303030303030303030303030303030303030303030303030301d
:4023c00030303030303030303030303030303030303030303030303030303030303030303030303030303030303030303030303030303030303030303030303030303030dd
:40240000303030303030303030303030303030303030303030303030303030303030303030303030303030303030303030303030303030303030303030303030303030309c
:40244000303030303030303030303030303030303030303030303030303030303030303030303030303030303030303030303030303030303030303030303030303030305c
:40248000303030303030303030303030303030303030303030303030303030303030303030303030303030303030303030303030303030303030303030303030303030301c
:4024c00030303030303030303030303030303030303030303030303030303030303030303030303030303030303030303030303030303030303030303030303030303030dc
:40250000303030303030303030303030303030303030303030303030303030303030303030303030303030303030303030303030303030303030303030303030303030309b
:40254000303030303030303030303030303030303030303030303030303030303030303030303030303030303030303030303030303030303030303030303030303030305b
:40258000303030303030303030303030303030303030303030303030303030303030303030303030303030303030303030303030303030303030303030303030303030301b
:4025c00030303030303030303030303030303030303030303030303030303030303030303030303030303030303030303030303030303030303030303030303030303030db
:40260000303030303030303030303030303030303030303030303030303030303030303030303030303030303030303030303030303030303030303030303030303030309a
:40264000303030303030303030303030303030303030303030303030303030303030303030303030303030303030303030303030303030303030303030303030303030305a
:40268000303030303030303030303030303030303030303030303030303030303030303030303030303030303030303030303030303030303030303030303030303030301a
:4026c00030303030303030303030303030303030303030303030303030303030303030303030303030303030303030303030303030303030303030303030303030303030da
:402700003030303030303030303030303030303030303030303030303030303030303030303030303030303030303030303030303030303030303030303030303030303099
:402740003030303030303030303030303030303030303030303030303030303030303030303030303030303030303030303030303030303030303030303030303030303059
:402780003030303030303030303030303030303030303030303030303030303030303030303030303030303030303030303030303030303030303030303030303030303019
:4027c00030303030303030303030303030303030303030303030303030303030303030303030303030303030303030303030303030303030303030303030303030303030d9
:402800003030303030303030303030303030303030303030303030303030303030303030303030303030303030303030303030303030303030303030303030303030303098
:402840003030303030303030303030303030303030303030303030303030303030303030303030303030303030303030303030303030303030303030303030303030303058
:402880003030303030303030303030303030303030303030303030303030303030303030303030303030303030303030303030303030303030303030303030303030303018
:4028c00030303030303030303030303030303030303030303030303030303030303030303030303030303030303030303030303030303030303030303030303030303030d8
:402900003030303030303030303030303030303030303030303030303030303030303030303030303030303030303030303030303030303030303030303030303030303097
:402940003030303030303030303030303030303030303030303030303030303030303030303030303030303030303030303030303030303030303030303030303030303057
:402980003030303030303030303030303030303030303030303030303030303030303030303030303030303030303030303030303030303030303030303030303030303017
:4029c00030303030303030303030303030303030303030303030303030303030303030303030303030303030303030303030303030303030303030303030303030303030d7
:402a00003030303030303030303030303030303030303030303030303030303030303030303030303030303030303030303030303030303030303030303030303030303096
:402a40003030303030303030303030303030303030303030303030303030303030303030303030303030303030303030303030303030303030303030303030303030303056
:402a80003030303030303030303030303030303030303030303030303030303030303030303030303030303030303030303030303030303030303030303030303030303016
:402ac00030303030303030303030303030303030303030303030303030303030303030303030303030303030303030303030303030303030303030303030303030303030d6
:402b00003030303030303030303030303030303030303030303030303030303030303030303030303030303030303030303030303030303030303030303030303030303095
:402b40003030303030303030303030303030303030303030303030303030303030303030303030303030303030303030303030303030303030303030303030303030303055
:402b80003030303030303030303030303030303030303030303030303030303030303030303030303030303030303030303030303030303030303030303030303030303015
:402bc00030303030303030303030303030303030303030303030303030303030303030303030303030303030303030303030303030303030303030303030303030303030d5
:402c00003030303030303030303030303030303030303030303030303030303030303030303030303030303030303030303030303030303030303030303030303030303094
:402c40003030303030303030303030303030303030303030303030303030303030303030303030303030303030303030303030303030303030303030303030303030303054
:402c80003030303030303030303030303030303030303030303030303030303030303030303030303030303030303030303030303030303030303030303030303030303014
:402cc00030303030303030303030303030303030303030303030303030303030303030303030303030303030303030303030303030303030303030303030303030303030d4
:402d00003030303030303030303030303030303030303030303030303030303030303030303030303030303030303030303030303030303030303030303030303030303093
:402d40003030303030303030303030303030303030303030303030303030303030303030303030303030303030303030303030303030303030303030303030303030303053
:402d80003030303030303030303030303030303030303030303030303030303030303030303030303030303030303030303030303030303030303030303030303030303013
:402dc00030303030303030303030303030303030303030303030303030303030303030303030303030303030303030303030303030303030303030303030303030303030d3
:402e00003030303030303030303030303030303030303030303030303030303030303030303030303030303030303030303030303030303030303030303030303030303092
:402e40003030303030303030303030303030303030303030303030303030303030303030303030303030303030303030303030303030303030303030303030303030303052
:402e80003030303030303030303030303030303030303030303030303030303030303030303030303030303030303030303030303030303030303030303030303030303012
:402ec00030303030303030303030303030303030303030303030303030303030303030303030303030303030303030303030303030303030303030303030303030303030d2
:402f00003030303030303030303030303030303030303030303030303030303030303030303030303030303030303030303030303030303030303030303030303030303091
:402f40003030303030303030303030303030303030303030303030303030303030303030303030303030303030303030303030303030303030303030303030303030303051
:402f80003030303030303030303030303030303030303030303030303030303030303030303030303030303030303030303030303030303030303030303030303030303011
:402fc00030303030303030303030303030303030303030303030303030303030303030303030303030303030303030303030303030303030303030303030303030303030d1
:403000003030303030303030303030303030303030303030303030303030303030303030303030303030303030303030303030303030303030303030303030303030303090
:403040003030303030303030303030303030303030303030303030303030303030303030303030303030303030303030303030303030303030303030303030303030303050
:403080003030303030303030303030303030303030303030303030303030303030303030303030303030303030303030303030303030303030303030303030303030303010
:4030c00030303030303030303030303030303030303030303030303030303030303030303030303030303030303030303030303030303030303030303030303030303030d0
:40310000303030303030303030303030303030303030303030303030303030303030303030303030303030303030303030303030303030303030303030303030303030308f
:40314000303030303030303030303030303030303030303030303030303030303030303030303030303030303030303030303030303030303030303030303030303030304f
:40318000303030303030303030303030303030303030303030303030303030303030303030303030303030303030303030303030303030303030303030303030303030300f
:4031c00030303030303030303030303030303030303030303030303030303030303030303030303030303030303030303030303030303030303030303030303030303030cf
:40320000303030303030303030303030303030303030303030303030303030303030303030303030303030303030303030303030303030303030303030303030303030308e
:40324000303030303030303030303030303030303030303030303030303030303030303030303030303030303030303030303030303030303030303030303030303030304e
:40328000303030303030303030303030303030303030303030303030303030303030303030303030303030303030303030303030303030303030303030303030303030300e
:4032c00030303030303030303030303030303030303030303030303030303030303030303030303030303030303030303030303030303030303030303030303030303030ce
:40330000303030303030303030303030303030303030303030303030303030303030303030303030303030303030303030303030303030303030303030303030303030308d
:40334000303030303030303030303030303030303030303030303030303030303030303030303030303030303030303030303030303030303030303030303030303030304d
:40338000303030303030303030303030303030303030303030303030303030303030303030303030303030303030303030303030303030303030303030303030303030300d
:4033c00030303030303030303030303030303030303030303030303030303030303030303030303030303030303030303030303030303030303030303030303030303030cd
:40340000303030303030303030303030303030303030303030303030303030303030303030303030303030303030303030303030303030303030303030303030303030308c
:40344000303030303030303030303030303030303030303030303030303030303030303030303030303030303030303030303030303030303030303030303030303030304c
:40348000303030303030303030303030303030303030303030303030303030303030303030303030303030303030303030303030303030303030303030303030303030300c
:4034c00030303030303030303030303030303030303030303030303030303030303030303030303030303030303030303030303030303030303030303030303030303030cc
:40350000303030303030303030303030303030303030303030303030303030303030303030303030303030303030303030303030303030303030303030303030303030308b
:40354000303030303030303030303030303030303030303030303030303030303030303030303030303030303030303030303030303030303030303030303030303030304b
:40358000303030303030303030303030303030303030303030303030303030303030303030303030303030303030303030303030303030303030303030303030303030300b
:4035c00030303030303030303030303030303030303030303030303030303030303030303030303030303030303030303030303030303030303030303030303030303030cb
:40360000303030303030303030303030303030303030303030303030303030303030303030303030303030303030303030303030303030303030303030303030303030308a
:40364000303030303030303030303030303030303030303030303030303030303030303030303030303030303030303030303030303030303030303030303030303030304a
:40368000303030303030303030303030303030303030303030303030303030303030303030303030303030303030303030303030303030303030303030303030303030300a
:4036c00030303030303030303030303030303030303030303030303030303030303030303030303030303030303030303030303030303030303030303030303030303030ca
:403700003030303030303030303030303030303030303030303030303030303030303030303030303030303030303030303030303030303030303030303030303030303089
:403740003030303030303030303030303030303030303030303030303030303030303030303030303030303030303030303030303030303030303030303030303030303049
:403780003030303030303030303030303030303030303030303030303030303030303030303030303030303030303030303030303030303030303030303030303030303009
:4037c00030303030303030303030303030303030303030303030303030303030303030303030303030303030303030303030303030303030303030303030303030303030c9
:403800003030303030303030303030303030303030303030303030303030303030303030303030303030303030303030303030303030303030303030303030303030303088
:403840003030303030303030303030303030303030303030303030303030303030303030303030303030303030303030303030303030303030303030303030303030303048
:403880003030303030303030303030303030303030303030303030303030303030303030303030303030303030303030303030303030303030303030303030303030303008
:4038c00030303030303030303030303030303030303030303030303030303030303030303030303030303030303030303030303030303030303030303030303030303030c8
:403900003030303030303030303030303030303030303030303030303030303030303030303030303030303030303030303030303030303030303030303030303030303087
:403940003030303030303030303030303030303030303030303030303030303030303030303030303030303030303030303030303030303030303030303030303030303047
:403980003030303030303030303030303030303030303030303030303030303030303030303030303030303030303030303030303030303030303030303030303030303007
:4039c00030303030303030303030303030303030303030303030303030303030303030303030303030303030303030303030303030303030303030303030303030303030c7
:403a00003030303030303030303030303030303030303030303030303030303030303030303030303030303030303030303030303030303030303030303030303030303086
:403a40003030303030303030303030303030303030303030303030303030303030303030303030303030303030303030303030303030303030303030303030303030303046
:403a80003030303030303030303030303030303030303030303030303030303030303030303030303030303030303030303030303030303030303030303030303030303006
:403ac00030303030303030303030303030303030303030303030303030303030303030303030303030303030303030303030303030303030303030303030303030303030c6
:403b00003030303030303030303030303030303030303030303030303030303030303030303030303030303030303030303030303030303030303030303030303030303085
:403b40003030303030303030303030303030303030303030303030303030303030303030303030303030303030303030303030303030303030303030303030303030303045
:403b80003030303030303030303030303030303030303030303030303030303030303030303030303030303030303030303030303030303030303030303030303030303005
:403bc00030303030303030303030303030303030303030303030303030303030303030303030303030303030303030303030303030303030303030303030303030303030c5
:403c00003030303030303030303030303030303030303030303030303030303030303030303030303030303030303030303030303030303030303030303030303030303084
:403c40003030303030303030303030303030303030303030303030303030303030303030303030303030303030303030303030303030303030303030303030303030303044
:403c80003030303030303030303030303030303030303030303030303030303030303030303030303030303030303030303030303030303030303030303030303030303004
:403cc00030303030303030303030303030303030303030303030303030303030303030303030303030303030303030303030303030303030303030303030303030303030c4
:403d00003030303030303030303030303030303030303030303030303030303030303030303030303030303030303030303030303030303030303030303030303030303083
:403d40003030303030303030303030303030303030303030303030303030303030303030303030303030303030303030303030303030303030303030303030303030303043
:403d80003030303030303030303030303030303030303030303030303030303030303030303030303030303030303030303030303030303030303030303030303030303003
:403dc00030303030303030303030303030303030303030303030303030303030303030303030303030303030303030303030303030303030303030303030303030303030c3
:403e00003030303030303030303030303030303030303030303030303030303030303030303030303030303030303030303030303030303030303030303030303030303082
:403e40003030303030303030303030303030303030303030303030303030303030303030303030303030303030303030303030303030303030303030303030303030303042
:403e80003030303030303030303030303030303030303030303030303030303030303030303030303030303030303030303030303030303030303030303030303030303002
:403ec00030303030303030303030303030303030303030303030303030303030303030303030303030303030303030303030303030303030303030303030303030303030c2
:403f00003030303030303030303030303030303030303030303030303030303030303030303030303030303030303030303030303030303030303030303030303030303081
:403f40003030303030303030303030303030303030303030303030303030303030303030303030303030303030303030303030303030303030303030303030303030303041
:403f80003030303030303030303030303030303030303030303030303030303030303030303030303030303030303030303030303030303030303030303030303030303001
:403fc00030303030303030303030303030303030303030303030303030303030303030303030303030303030303030303030303030303030303030303030303030303030c1
:020000040010ea
:40000000ffffffffffffffffffffffffffffffffffffffffffffffffffffffffffffffffffffffffffffffffffffffffffffffffffffffffffffffffffffffffffffffff00
:020000040020da
:02000000bb66dd
:00000001ff
