                        .module main.c
                        .area text(rom, con, rel)
 0000                   .dbfile ./main.c
 0000                   .dbfile C:\Users\Link\DOCUME~1\PSoC\JugandoConElADC2\JugandoConElADC2\main.c
 0000                   .dbfunc e main _main fV
 0000           ;        adcData -> X+0
 0000           _main::
 0000                   .dbline -1
 0000 10                push X
 0001 4F                mov X,SP
 0002 3801              add SP,1
 0004                   .dbline 12
 0004           ; //----------------------------------------------------------------------------
 0004           ; // C main line
 0004           ; //----------------------------------------------------------------------------
 0004           ; 
 0004           ; #include <m8c.h>        // part specific constants and macros
 0004           ; #include "PSoCAPI.h"    // PSoC API definitions for all User Modules
 0004           ; 
 0004           ; #pragma interrupt_handler interrupcionComparador
 0004           ; #pragma interrupt_handler interrupcionBuffer
 0004           ; 
 0004           ; void main(void)
 0004           ; {
 0004                   .dbline 13
 0004           ;        M8C_EnableGInt ; // Uncomment this line to enable Global Interrupts
 0004 7101                      or  F, 01h
 0006           
 0006                   .dbline 15
 0006           ;       // Insert your main routine code here.
 0006           ;       LCD_Start();
 0006 10                push X
 0007 7C0000            xcall _LCD_Start
 000A                   .dbline 16
 000A           ;       PGA_Start(PGA_HIGHPOWER);
 000A 5003              mov A,3
 000C 7C0000            xcall _PGA_Start
 000F                   .dbline 17
 000F           ;       comparadorSC_Start(comparadorSC_HIGHPOWER);
 000F 5003              mov A,3
 0011 7C0000            xcall _comparadorSC_Start
 0014                   .dbline 18
 0014           ;       ADC_Start(ADC_HIGHPOWER);
 0014 5003              mov A,3
 0016 7C0000            xcall _ADC_Start
 0019                   .dbline 19
 0019           ;       bufferDigital_Start();
 0019 7C0000            xcall _bufferDigital_Start
 001C                   .dbline 20
 001C           ;       ADC_GetSamples(0);
 001C 5000              mov A,0
 001E 7C0000            xcall _ADC_GetSamples
 0021                   .dbline 21
 0021           ;       LCD_Position(0,0);
 0021 5000              mov A,0
 0023 5700              mov X,0
 0025 7C0000            xcall _LCD_Position
 0028                   .dbline 22
 0028           ;       LCD_PrCString("hola");
 0028 501A              mov A,>L2
 002A 08                push A
 002B 501A              mov A,<L2
 002D 5C                mov X,A
 002E 18                pop A
 002F 7C0000            xcall _LCD_PrCString
 0032 20                pop X
 0033                   .dbline 24
 0033           ; //            M8C_DisableIntMask(INT_MSK0,INT_MSK0_ACOLUMN_0);
 0033           ;       M8C_DisableIntMask(INT_MSK1,INT_MSK1_DBB01);
 0033 41E1FD            and REG[0xe1],-3
 0036                   .dbline 25
 0036           ;       M8C_EnableIntMask(INT_MSK0,INT_MSK0_ACOLUMN_0);
 0036 43E002            or REG[0xe0],2
 0039                   .dbline 28
 0039           ; //    M8C_EnableIntMask(INT_MSK1,INT_MSK1_DBB01);
 0039           ; //    bufferDigital_EnableInt();
 0039           ;       comparadorSC_EnableInt();
 0039 10                push X
 003A 7C0000            xcall _comparadorSC_EnableInt
 003D 20                pop X
 003E 8026              xjmp L4
 0040           L3:
 0040                   .dbline 29
 0040           ;       while (1){
 0040                   .dbline 30
 0040           ;               if (ADC_fIsDataAvailable()!=0){
 0040 10                push X
 0041 7C0000            xcall _ADC_fIsDataAvailable
 0044 20                pop X
 0045 3900              cmp A,0
 0047 A01D              jz L6
 0049                   .dbline 31
 0049           ;                       unsigned char adcData;
 0049                   .dbline 32
 0049           ;                       adcData=ADC_wGetData();
 0049 10                push X
 004A 7C0000            xcall _ADC_wGetData
 004D 20                pop X
 004E 5400              mov [X+0],A
 0050                   .dbline 34
 0050           ; //                    ADC_bGetData();
 0050           ;                       ADC_fClearFlag();
 0050 10                push X
 0051 7C0000            xcall _ADC_fClearFlag
 0054                   .dbline 35
 0054           ;                       LCD_Position(0,7);
 0054 5707              mov X,7
 0056 5000              mov A,0
 0058 7C0000            xcall _LCD_Position
 005B 20                pop X
 005C                   .dbline 36
 005C           ;                       LCD_PrHexInt(adcData);
 005C 5200              mov A,[X+0]
 005E 10                push X
 005F 5700              mov X,0
 0061 7C0000            xcall _LCD_PrHexInt
 0064 20                pop X
 0065                   .dbline 38
 0065           ; //                    LCD_PrCString("data");
 0065           ;               }
 0065           L6:
 0065                   .dbline 39
 0065           ;       }
 0065           L4:
 0065                   .dbline 29
 0065 8FDA              xjmp L3
 0067           X0:
 0067                   .dbline -2
 0067           L1:
 0067 38FF              add SP,-1
 0069 20                pop X
 006A                   .dbline 0 ; func end
 006A 8FFF              jmp .
 006C                   .dbsym l adcData 0 c
 006C                   .dbend
 006C                   .dbfunc e interrupcionComparador _interrupcionComparador fV
 006C           _interrupcionComparador::
 006C                   .dbline -1
 006C 08                push A
 006D 5100              mov A,[__r0]
 006F 08                push A
 0070 5100              mov A,[__r1]
 0072 08                push A
 0073 5100              mov A,[__r2]
 0075 08                push A
 0076 5100              mov A,[__r3]
 0078 08                push A
 0079 5100              mov A,[__r4]
 007B 08                push A
 007C 5100              mov A,[__r5]
 007E 08                push A
 007F 5100              mov A,[__r6]
 0081 08                push A
 0082 5100              mov A,[__r7]
 0084 08                push A
 0085 5100              mov A,[__r8]
 0087 08                push A
 0088 5100              mov A,[__r9]
 008A 08                push A
 008B 5100              mov A,[__r10]
 008D 08                push A
 008E 5100              mov A,[__r11]
 0090 08                push A
 0091 5100              mov A,[__rX]
 0093 08                push A
 0094 5100              mov A,[__rY]
 0096 08                push A
 0097 5100              mov A,[__rZ]
 0099 08                push A
 009A                   .dbline 42
 009A           ; }
 009A           ; 
 009A           ; void interrupcionComparador(void ){
 009A                   .dbline 43
 009A           ;       LCD_Position(1,0);
 009A 10                push X
 009B 5700              mov X,0
 009D 5001              mov A,1
 009F 7C0000            xcall _LCD_Position
 00A2                   .dbline 44
 00A2           ;       LCD_PrCString("Int comparador");
 00A2 500B              mov A,>L9
 00A4 08                push A
 00A5 500B              mov A,<L9
 00A7 5C                mov X,A
 00A8 18                pop A
 00A9 7C0000            xcall _LCD_PrCString
 00AC 20                pop X
 00AD                   .dbline 45
 00AD           ;       PRT1DR^=0x04;
 00AD 450404            xor REG[0x4],4
 00B0                   .dbline -2
 00B0           L8:
 00B0 18                pop A
 00B1 5300              mov [__rZ],A
 00B3 18                pop A
 00B4 5300              mov [__rY],A
 00B6 18                pop A
 00B7 5300              mov [__rX],A
 00B9 18                pop A
 00BA 5300              mov [__r11],A
 00BC 18                pop A
 00BD 5300              mov [__r10],A
 00BF 18                pop A
 00C0 5300              mov [__r9],A
 00C2 18                pop A
 00C3 5300              mov [__r8],A
 00C5 18                pop A
 00C6 5300              mov [__r7],A
 00C8 18                pop A
 00C9 5300              mov [__r6],A
 00CB 18                pop A
 00CC 5300              mov [__r5],A
 00CE 18                pop A
 00CF 5300              mov [__r4],A
 00D1 18                pop A
 00D2 5300              mov [__r3],A
 00D4 18                pop A
 00D5 5300              mov [__r2],A
 00D7 18                pop A
 00D8 5300              mov [__r1],A
 00DA 18                pop A
 00DB 5300              mov [__r0],A
 00DD 18                pop A
 00DE                   .dbline 0 ; func end
 00DE 7E                reti
 00DF                   .dbend
 00DF                   .dbfunc e interrupcionBuffer _interrupcionBuffer fV
 00DF           _interrupcionBuffer::
 00DF                   .dbline -1
 00DF 08                push A
 00E0 5100              mov A,[__r0]
 00E2 08                push A
 00E3 5100              mov A,[__r1]
 00E5 08                push A
 00E6 5100              mov A,[__r2]
 00E8 08                push A
 00E9 5100              mov A,[__r3]
 00EB 08                push A
 00EC 5100              mov A,[__r4]
 00EE 08                push A
 00EF 5100              mov A,[__r5]
 00F1 08                push A
 00F2 5100              mov A,[__r6]
 00F4 08                push A
 00F5 5100              mov A,[__r7]
 00F7 08                push A
 00F8 5100              mov A,[__r8]
 00FA 08                push A
 00FB 5100              mov A,[__r9]
 00FD 08                push A
 00FE 5100              mov A,[__r10]
 0100 08                push A
 0101 5100              mov A,[__r11]
 0103 08                push A
 0104 5100              mov A,[__rX]
 0106 08                push A
 0107 5100              mov A,[__rY]
 0109 08                push A
 010A 5100              mov A,[__rZ]
 010C 08                push A
 010D                   .dbline 48
 010D           ; }
 010D           ; 
 010D           ; void interrupcionBuffer(void ){
 010D                   .dbline 49
 010D           ;       LCD_Position(1,0);
 010D 10                push X
 010E 5700              mov X,0
 0110 5001              mov A,1
 0112 7C0000            xcall _LCD_Position
 0115                   .dbline 50
 0115           ;       LCD_PrCString("Int buffer");
 0115 5000              mov A,>L11
 0117 08                push A
 0118 5000              mov A,<L11
 011A 5C                mov X,A
 011B 18                pop A
 011C 7C0000            xcall _LCD_PrCString
 011F 20                pop X
 0120                   .dbline 51
 0120           ;       PRT1DR^=0x08;
 0120 450408            xor REG[0x4],8
 0123                   .dbline -2
 0123           L10:
 0123 18                pop A
 0124 5300              mov [__rZ],A
 0126 18                pop A
 0127 5300              mov [__rY],A
 0129 18                pop A
 012A 5300              mov [__rX],A
 012C 18                pop A
 012D 5300              mov [__r11],A
 012F 18                pop A
 0130 5300              mov [__r10],A
 0132 18                pop A
 0133 5300              mov [__r9],A
 0135 18                pop A
 0136 5300              mov [__r8],A
 0138 18                pop A
 0139 5300              mov [__r7],A
 013B 18                pop A
 013C 5300              mov [__r6],A
 013E 18                pop A
 013F 5300              mov [__r5],A
 0141 18                pop A
 0142 5300              mov [__r4],A
 0144 18                pop A
 0145 5300              mov [__r3],A
 0147 18                pop A
 0148 5300              mov [__r2],A
 014A 18                pop A
 014B 5300              mov [__r1],A
 014D 18                pop A
 014E 5300              mov [__r0],A
 0150 18                pop A
 0151                   .dbline 0 ; func end
 0151 7E                reti
 0152                   .dbend
                        .area lit(rom, con, rel, lit)
 0000           L11:
 0000 496E742062756666657200    .byte 'I,'n,'t,32,'b,'u,'f,'f,'e,'r,0
 000B           L9:
 000B 496E7420636F6D70617261646F7200    .byte 'I,'n,'t,32,'c,'o,'m,'p,'a,'r,'a,'d,'o,'r,0
 001A           L2:
 001A 686F6C6100        .byte 'h,'o,'l,'a,0
